(export (version D)
  (design
    (source C:\Users\utilisateur\Documents\Tripalium\GitLab\Analog_Battery_Regulator\05-Contribute\KiCAD_project\Regulateur_SI_V3\RegulatorV2.sch)
    (date "14/06/2020 15:11:47")
    (tool "Eeschema (5.0.0)")
    (sheet (number 1) (name /) (tstamps /)
      (title_block
        (title "SWACC - Small Wind Charge Controller")
        (company Tripalium)
        (rev 3.2)
        (date 2018-12-10)
        (source RegulatorV2.sch)
        (comment (number 1) (value "Design & Schematic : Adrien Prévost - adriprevost@hotmail.fr"))
        (comment (number 2) (value "Contributors : Adrien Prévost, Clément Gangneux, Bastien Gary, Jay Hudnall"))
        (comment (number 3) (value ""))
        (comment (number 4) (value "")))))
  (components
    (comp (ref IC1)
      (value SG3525)
      (footprint Housings_DIP:DIP-16_W7.62mm)
      (libsource (lib Regulator_Controller) (part SG3525) (description "Regulating Pulse Width Modulators, NOR Logic, PDIP-16/SOIC-16"))
      (sheetpath (names /) (tstamps /))
      (tstamp 5ACE3170))
    (comp (ref R18)
      (value 2.2k)
      (footprint Resistors_THT:R_Axial_DIN0207_L6.3mm_D2.5mm_P10.16mm_Horizontal)
      (libsource (lib Device) (part R) (description Resistor))
      (sheetpath (names /) (tstamps /))
      (tstamp 5ACF5BE1))
    (comp (ref R19)
      (value 2.2k)
      (footprint Resistors_THT:R_Axial_DIN0207_L6.3mm_D2.5mm_P10.16mm_Horizontal)
      (libsource (lib Device) (part R) (description Resistor))
      (sheetpath (names /) (tstamps /))
      (tstamp 5ACF5CC4))
    (comp (ref D1)
      (value 1N5353B)
      (footprint Diodes_THT:D_DO-15_P12.70mm_Horizontal)
      (libsource (lib Device) (part D_Zener) (description "Zener Diode"))
      (sheetpath (names /) (tstamps /))
      (tstamp 5AD074C8))
    (comp (ref R9)
      (value 1.5k)
      (footprint Resistor_THT:R_Axial_Power_L38.0mm_W9.0mm_P45.72mm)
      (libsource (lib Device) (part R) (description Resistor))
      (sheetpath (names /) (tstamps /))
      (tstamp 5AD076BE))
    (comp (ref Q1)
      (value FJA43100TU)
      (footprint TO_SOT_Packages_THT:TO-3PB__Vertical)
      (libsource (lib Device) (part Q_NPN_BCE) (description "Transistor NPN (general)"))
      (sheetpath (names /) (tstamps /))
      (tstamp 5AD07701))
    (comp (ref C1)
      (value 100n)
      (footprint Capacitor_THT:C_Disc_D4.7mm_W2.5mm_P5.00mm)
      (libsource (lib Device) (part C) (description "Unpolarized capacitor"))
      (sheetpath (names /) (tstamps /))
      (tstamp 5AD07769))
    (comp (ref R5)
      (value 20k)
      (footprint Resistors_THT:R_Axial_DIN0207_L6.3mm_D2.5mm_P10.16mm_Horizontal)
      (libsource (lib Device) (part R) (description Resistor))
      (sheetpath (names /) (tstamps /))
      (tstamp 5AD07CD3))
    (comp (ref R6)
      (value 11k)
      (footprint Resistors_THT:R_Axial_DIN0207_L6.3mm_D2.5mm_P10.16mm_Horizontal)
      (libsource (lib Device) (part R) (description Resistor))
      (sheetpath (names /) (tstamps /))
      (tstamp 5AD07D52))
    (comp (ref R11)
      (value 4.3k)
      (footprint Resistors_THT:R_Axial_DIN0207_L6.3mm_D2.5mm_P10.16mm_Horizontal)
      (libsource (lib Device) (part R) (description Resistor))
      (sheetpath (names /) (tstamps /))
      (tstamp 5AD07DFB))
    (comp (ref R13)
      (value 105k)
      (footprint Resistors_THT:R_Axial_DIN0207_L6.3mm_D2.5mm_P10.16mm_Horizontal)
      (libsource (lib Device) (part R) (description Resistor))
      (sheetpath (names /) (tstamps /))
      (tstamp 5AD07E58))
    (comp (ref R14)
      (value 10.2k)
      (footprint Resistors_THT:R_Axial_DIN0207_L6.3mm_D2.5mm_P10.16mm_Horizontal)
      (libsource (lib Device) (part R) (description Resistor))
      (sheetpath (names /) (tstamps /))
      (tstamp 5AD07EAA))
    (comp (ref SW1)
      (value JS203011CQN)
      (footprint Switchs_perso:SW_SP3T)
      (libsource (lib RegulatorV2-rescue) (part SW_SP3T) (description ""))
      (sheetpath (names /) (tstamps /))
      (tstamp 5AD086E0))
    (comp (ref U1)
      (value LM358N)
      (footprint Housings_DIP:DIP-8_W7.62mm)
      (libsource (lib RegulatorV2-rescue) (part LM358) (description ""))
      (sheetpath (names /) (tstamps /))
      (tstamp 5AD08D23))
    (comp (ref R20)
      (value 10k)
      (footprint Resistors_THT:R_Axial_DIN0207_L6.3mm_D2.5mm_P10.16mm_Horizontal)
      (libsource (lib Device) (part R) (description Resistor))
      (sheetpath (names /) (tstamps /))
      (tstamp 5AD09DFB))
    (comp (ref R21)
      (value 10k)
      (footprint Resistors_THT:R_Axial_DIN0207_L6.3mm_D2.5mm_P10.16mm_Horizontal)
      (libsource (lib Device) (part R) (description Resistor))
      (sheetpath (names /) (tstamps /))
      (tstamp 5AD09E57))
    (comp (ref R23)
      (value 10k)
      (footprint Resistors_THT:R_Axial_DIN0207_L6.3mm_D2.5mm_P10.16mm_Horizontal)
      (libsource (lib Device) (part R) (description Resistor))
      (sheetpath (names /) (tstamps /))
      (tstamp 5AD0A421))
    (comp (ref R15)
      (value 47k)
      (footprint Resistors_THT:R_Axial_DIN0207_L6.3mm_D2.5mm_P10.16mm_Horizontal)
      (libsource (lib Device) (part R) (description Resistor))
      (sheetpath (names /) (tstamps /))
      (tstamp 5AD0B620))
    (comp (ref R17)
      (value 22)
      (footprint Resistors_THT:R_Axial_DIN0207_L6.3mm_D2.5mm_P10.16mm_Horizontal)
      (libsource (lib Device) (part R) (description Resistor))
      (sheetpath (names /) (tstamps /))
      (tstamp 5AD0B6AE))
    (comp (ref CT1)
      (value 100n)
      (footprint Capacitor_THT:C_Disc_D4.7mm_W2.5mm_P5.00mm)
      (libsource (lib Device) (part C) (description "Unpolarized capacitor"))
      (sheetpath (names /) (tstamps /))
      (tstamp 5AD0B731))
    (comp (ref CSS1)
      (value 10n)
      (footprint Capacitor_THT:C_Disc_D4.7mm_W2.5mm_P5.00mm)
      (libsource (lib Device) (part C) (description "Unpolarized capacitor"))
      (sheetpath (names /) (tstamps /))
      (tstamp 5AD0B7B3))
    (comp (ref C2)
      (value 2.2u)
      (footprint Capacitor_THT:C_Disc_D4.7mm_W2.5mm_P5.00mm)
      (libsource (lib Device) (part C) (description "Unpolarized capacitor"))
      (sheetpath (names /) (tstamps /))
      (tstamp 5AD0C260))
    (comp (ref R16)
      (value 36k)
      (footprint Resistors_THT:R_Axial_DIN0207_L6.3mm_D2.5mm_P10.16mm_Horizontal)
      (libsource (lib Device) (part R) (description Resistor))
      (sheetpath (names /) (tstamps /))
      (tstamp 5AD0C2DF))
    (comp (ref R12)
      (value 36k)
      (footprint Resistors_THT:R_Axial_DIN0207_L6.3mm_D2.5mm_P10.16mm_Horizontal)
      (libsource (lib Device) (part R) (description Resistor))
      (sheetpath (names /) (tstamps /))
      (tstamp 5AD0C602))
    (comp (ref U3)
      (value LM358N)
      (footprint Housings_DIP:DIP-8_W7.62mm)
      (libsource (lib RegulatorV2-rescue) (part LM358) (description ""))
      (sheetpath (names /) (tstamps /))
      (tstamp 5AD0D786))
    (comp (ref U2)
      (value LM358N)
      (footprint Housings_DIP:DIP-8_W7.62mm)
      (libsource (lib RegulatorV2-rescue) (part LM358) (description ""))
      (sheetpath (names /) (tstamps /))
      (tstamp 5AD0EB4C))
    (comp (ref R22)
      (value 13k)
      (footprint Resistors_THT:R_Axial_DIN0207_L6.3mm_D2.5mm_P10.16mm_Horizontal)
      (libsource (lib Device) (part R) (description Resistor))
      (sheetpath (names /) (tstamps /))
      (tstamp 5AD107DC))
    (comp (ref R25)
      (value 11k)
      (footprint Resistors_THT:R_Axial_DIN0207_L6.3mm_D2.5mm_P10.16mm_Horizontal)
      (libsource (lib Device) (part R) (description Resistor))
      (sheetpath (names /) (tstamps /))
      (tstamp 5AD1088A))
    (comp (ref R1)
      (value 10k)
      (footprint Resistors_THT:R_Axial_DIN0207_L6.3mm_D2.5mm_P10.16mm_Horizontal)
      (libsource (lib Device) (part R) (description Resistor))
      (sheetpath (names /) (tstamps /))
      (tstamp 5AD11E57))
    (comp (ref R2)
      (value 10k)
      (footprint Resistors_THT:R_Axial_DIN0207_L6.3mm_D2.5mm_P10.16mm_Horizontal)
      (libsource (lib Device) (part R) (description Resistor))
      (sheetpath (names /) (tstamps /))
      (tstamp 5AD11EEA))
    (comp (ref R3)
      (value 10k)
      (footprint Resistors_THT:R_Axial_DIN0207_L6.3mm_D2.5mm_P10.16mm_Horizontal)
      (libsource (lib Device) (part R) (description Resistor))
      (sheetpath (names /) (tstamps /))
      (tstamp 5AD11F72))
    (comp (ref R4)
      (value 10k)
      (footprint Resistors_THT:R_Axial_DIN0207_L6.3mm_D2.5mm_P10.16mm_Horizontal)
      (libsource (lib Device) (part R) (description Resistor))
      (sheetpath (names /) (tstamps /))
      (tstamp 5AD12009))
    (comp (ref Q4)
      (value IRFB4321)
      (footprint TO_SOT_Packages_THT:TO-220-3_Vertical)
      (libsource (lib RegulatorV2-rescue) (part IRLZ44N) (description ""))
      (sheetpath (names /) (tstamps /))
      (tstamp 5AD46B8F))
    (comp (ref Q3)
      (value IRFB4321)
      (footprint TO_SOT_Packages_THT:TO-220-3_Vertical)
      (libsource (lib RegulatorV2-rescue) (part IRLZ44N) (description ""))
      (sheetpath (names /) (tstamps /))
      (tstamp 5AD46F3E))
    (comp (ref Q2)
      (value IRFB4321)
      (footprint TO_SOT_Packages_THT:TO-220-3_Vertical)
      (fields
        (field (name Package) TO220))
      (libsource (lib RegulatorV2-rescue) (part IRLZ44N) (description ""))
      (sheetpath (names /) (tstamps /))
      (tstamp 5AD47004))
    (comp (ref R26)
      (value 22)
      (footprint Resistors_perso:R_Axial_DIN0207_L40mm_D2.5mm_P15.24mm_Horizontal)
      (libsource (lib Device) (part R) (description Resistor))
      (sheetpath (names /) (tstamps /))
      (tstamp 5AD47166))
    (comp (ref R27)
      (value 22)
      (footprint Resistors_perso:R_Axial_DIN0207_L40mm_D2.5mm_P15.24mm_Horizontal)
      (libsource (lib Device) (part R) (description Resistor))
      (sheetpath (names /) (tstamps /))
      (tstamp 5AD472D6))
    (comp (ref R28)
      (value 22)
      (footprint Resistors_perso:R_Axial_DIN0207_L40mm_D2.5mm_P15.24mm_Horizontal)
      (libsource (lib Device) (part R) (description Resistor))
      (sheetpath (names /) (tstamps /))
      (tstamp 5AD473AE))
    (comp (ref R24)
      (value 1.5k)
      (footprint Resistors_THT:R_Axial_DIN0207_L6.3mm_D2.5mm_P10.16mm_Horizontal)
      (libsource (lib Device) (part R) (description Resistor))
      (sheetpath (names /) (tstamps /))
      (tstamp 5AD47D18))
    (comp (ref R10)
      (value 20k)
      (footprint Resistors_THT:R_Axial_DIN0207_L6.3mm_D2.5mm_P10.16mm_Horizontal)
      (libsource (lib Device) (part R) (description Resistor))
      (sheetpath (names /) (tstamps /))
      (tstamp 5AD76DA2))
    (comp (ref RV1)
      (value 10k)
      (footprint Potentiometer_THT:Potentiometer_Bourns_3386C_Horizontal)
      (libsource (lib RegulatorV2-rescue) (part POT) (description ""))
      (sheetpath (names /) (tstamps /))
      (tstamp 5AD78034))
    (comp (ref J3)
      (value Conn_01x03)
      (footprint TerminalBlock_4Ucon:TerminalBlock_4Ucon_1x03_P3.50mm_Horizontal)
      (libsource (lib RegulatorV2-rescue) (part Conn_01x03) (description ""))
      (sheetpath (names /) (tstamps /))
      (tstamp 5ADE5491))
    (comp (ref C4)
      (value 100n)
      (footprint Capacitor_THT:C_Disc_D4.7mm_W2.5mm_P5.00mm)
      (libsource (lib Device) (part C) (description "Unpolarized capacitor"))
      (sheetpath (names /) (tstamps /))
      (tstamp 5AE10082))
    (comp (ref R7)
      (value 1k)
      (footprint Resistors_THT:R_Axial_DIN0207_L6.3mm_D2.5mm_P10.16mm_Horizontal)
      (libsource (lib Device) (part R) (description Resistor))
      (sheetpath (names /) (tstamps /))
      (tstamp 5AE14A31))
    (comp (ref D2)
      (value "LED L-53GD")
      (footprint LED_THT:LED_D5.0mm)
      (libsource (lib Device) (part LED) (description "LED generic"))
      (sheetpath (names /) (tstamps /))
      (tstamp 5AE14B2A))
    (comp (ref D3)
      (value "LED L-53HD")
      (footprint LED_THT:LED_D5.0mm)
      (libsource (lib Device) (part LED) (description "LED generic"))
      (sheetpath (names /) (tstamps /))
      (tstamp 5AE14BE3))
    (comp (ref R8)
      (value 4.7k)
      (footprint Resistors_THT:R_Axial_DIN0411_L9.9mm_D3.6mm_P12.70mm_Horizontal)
      (libsource (lib Device) (part R) (description Resistor))
      (sheetpath (names /) (tstamps /))
      (tstamp 5AE14D08))
    (comp (ref D6)
      (value SR5100)
      (footprint Diode_THT:D_DO-27_P15.24mm_Horizontal)
      (libsource (lib Device) (part D) (description Diode))
      (sheetpath (names /) (tstamps /))
      (tstamp 5AE18BED))
    (comp (ref Q5)
      (value IRFB4321)
      (footprint TO_SOT_Packages_THT:TO-220-3_Vertical)
      (libsource (lib RegulatorV2-rescue) (part IRLZ44N) (description ""))
      (sheetpath (names /) (tstamps /))
      (tstamp 5AFDB25B))
    (comp (ref R29)
      (value 22)
      (footprint Resistors_perso:R_Axial_DIN0207_L40mm_D2.5mm_P15.24mm_Horizontal)
      (libsource (lib Device) (part R) (description Resistor))
      (sheetpath (names /) (tstamps /))
      (tstamp 5AFDB326))
    (comp (ref C8)
      (value 2.2u)
      (footprint Capacitor_THT:C_Disc_D4.7mm_W2.5mm_P5.00mm)
      (libsource (lib Device) (part C) (description "Unpolarized capacitor"))
      (sheetpath (names /) (tstamps /))
      (tstamp 5B327D59))
    (comp (ref C3)
      (value 100n)
      (footprint Capacitor_THT:C_Disc_D4.7mm_W2.5mm_P5.00mm)
      (libsource (lib Device) (part C) (description "Unpolarized capacitor"))
      (sheetpath (names /) (tstamps /))
      (tstamp 5B32C700))
    (comp (ref D5)
      (value 1N5819)
      (footprint Diodes_THT:D_DO-15_P10.16mm_Horizontal)
      (libsource (lib Device) (part D) (description Diode))
      (sheetpath (names /) (tstamps /))
      (tstamp 5B369317))
    (comp (ref D4)
      (value 1N5819)
      (footprint Diodes_THT:D_DO-15_P10.16mm_Horizontal)
      (libsource (lib Device) (part D) (description Diode))
      (sheetpath (names /) (tstamps /))
      (tstamp 5B36955A))
    (comp (ref MH3)
      (value MountingHole_Pad)
      (footprint MountingHole:MountingHole_5.3mm_M5_DIN965_Pad)
      (datasheet ~)
      (libsource (lib Mechanical) (part MountingHole_Pad) (description "Mounting Hole with connection"))
      (sheetpath (names /) (tstamps /))
      (tstamp 5EF185DA))
    (comp (ref MH1)
      (value MountingHole_Pad)
      (footprint MountingHole:MountingHole_5.3mm_M5_DIN965_Pad)
      (datasheet ~)
      (libsource (lib Mechanical) (part MountingHole_Pad) (description "Mounting Hole with connection"))
      (sheetpath (names /) (tstamps /))
      (tstamp 5EF18686))
    (comp (ref MH2)
      (value MountingHole_Pad)
      (footprint MountingHole:MountingHole_5.3mm_M5_DIN965_Pad)
      (datasheet ~)
      (libsource (lib Mechanical) (part MountingHole_Pad) (description "Mounting Hole with connection"))
      (sheetpath (names /) (tstamps /))
      (tstamp 5EF18720))
    (comp (ref MH4)
      (value MountingHole_Pad)
      (footprint MountingHole:MountingHole_5.3mm_M5_DIN965_Pad)
      (datasheet ~)
      (libsource (lib Mechanical) (part MountingHole_Pad) (description "Mounting Hole with connection"))
      (sheetpath (names /) (tstamps /))
      (tstamp 5EF187B4)))
  (libparts
    (libpart (lib Device) (part C)
      (description "Unpolarized capacitor")
      (docs ~)
      (footprints
        (fp C_*))
      (fields
        (field (name Reference) C)
        (field (name Value) C))
      (pins
        (pin (num 1) (name ~) (type passive))
        (pin (num 2) (name ~) (type passive))))
    (libpart (lib Device) (part D)
      (description Diode)
      (docs ~)
      (footprints
        (fp TO-???*)
        (fp *_Diode_*)
        (fp *SingleDiode*)
        (fp D_*))
      (fields
        (field (name Reference) D)
        (field (name Value) D))
      (pins
        (pin (num 1) (name K) (type passive))
        (pin (num 2) (name A) (type passive))))
    (libpart (lib Device) (part D_Zener)
      (description "Zener Diode")
      (docs ~)
      (footprints
        (fp TO-???*)
        (fp *_Diode_*)
        (fp *SingleDiode*)
        (fp D_*))
      (fields
        (field (name Reference) D)
        (field (name Value) D_Zener))
      (pins
        (pin (num 1) (name K) (type passive))
        (pin (num 2) (name A) (type passive))))
    (libpart (lib Device) (part LED)
      (description "LED generic")
      (docs ~)
      (footprints
        (fp LED*)
        (fp LED_SMD:*)
        (fp LED_THT:*))
      (fields
        (field (name Reference) D)
        (field (name Value) LED))
      (pins
        (pin (num 1) (name K) (type passive))
        (pin (num 2) (name A) (type passive))))
    (libpart (lib Device) (part Q_NPN_BCE)
      (description "Transistor NPN (general)")
      (docs ~)
      (fields
        (field (name Reference) Q)
        (field (name Value) Q_NPN_BCE))
      (pins
        (pin (num 1) (name B) (type input))
        (pin (num 2) (name C) (type passive))
        (pin (num 3) (name E) (type passive))))
    (libpart (lib Device) (part R)
      (description Resistor)
      (docs ~)
      (footprints
        (fp R_*))
      (fields
        (field (name Reference) R)
        (field (name Value) R))
      (pins
        (pin (num 1) (name ~) (type passive))
        (pin (num 2) (name ~) (type passive))))
    (libpart (lib Mechanical) (part MountingHole_Pad)
      (description "Mounting Hole with connection")
      (docs ~)
      (footprints
        (fp MountingHole*Pad*))
      (fields
        (field (name Reference) MH)
        (field (name Value) MountingHole_Pad))
      (pins
        (pin (num 1) (name 1) (type input))))
    (libpart (lib RegulatorV2-rescue) (part Conn_01x03)
      (footprints
        (fp Connector*:*_1x??_*))
      (fields
        (field (name Reference) J)
        (field (name Value) Conn_01x03))
      (pins
        (pin (num 1) (name Pin_1) (type passive))
        (pin (num 2) (name Pin_2) (type passive))
        (pin (num 3) (name Pin_3) (type passive))))
    (libpart (lib RegulatorV2-rescue) (part IRLZ44N)
      (footprints
        (fp TO?220*))
      (fields
        (field (name Reference) Q)
        (field (name Value) IRLZ44N)
        (field (name Footprint) Package_TO_SOT_THT:TO-220-3_Vertical))
      (pins
        (pin (num 1) (name G) (type input))
        (pin (num 2) (name D) (type passive))
        (pin (num 3) (name S) (type passive))))
    (libpart (lib RegulatorV2-rescue) (part LM358)
      (footprints
        (fp SOIC*3.9x4.9mm*P1.27mm*)
        (fp DIP*W7.62mm*)
        (fp TO*99*)
        (fp OnSemi*Micro8*)
        (fp TSSOP*3x3mm*P0.65mm*)
        (fp TSSOP*4.4x3mm*P0.65mm*)
        (fp MSOP*3x3mm*P0.65mm*)
        (fp SSOP*3.9x4.9mm*P0.635mm*)
        (fp LFCSP*2x2mm*P0.5mm*)
        (fp *SIP*)
        (fp SOIC*5.3x6.2mm*P1.27mm*))
      (fields
        (field (name Reference) U)
        (field (name Value) LM358))
      (pins
        (pin (num 1) (name ~) (type output))
        (pin (num 2) (name -) (type input))
        (pin (num 3) (name +) (type input))
        (pin (num 4) (name V-) (type power_in))
        (pin (num 5) (name +) (type input))
        (pin (num 6) (name -) (type input))
        (pin (num 7) (name ~) (type output))
        (pin (num 8) (name V+) (type power_in))))
    (libpart (lib RegulatorV2-rescue) (part POT)
      (footprints
        (fp Potentiometer*))
      (fields
        (field (name Reference) RV)
        (field (name Value) POT))
      (pins
        (pin (num 1) (name 1) (type passive))
        (pin (num 2) (name 2) (type passive))
        (pin (num 3) (name 3) (type passive))))
    (libpart (lib RegulatorV2-rescue) (part SW_SP3T)
      (footprints
        (fp SW*)
        (fp SP3T*))
      (fields
        (field (name Reference) SW)
        (field (name Value) SW_SP3T))
      (pins
        (pin (num 1) (name 1) (type passive))
        (pin (num 2) (name 2) (type passive))
        (pin (num 3) (name 3) (type passive))
        (pin (num 4) (name 4) (type passive))))
    (libpart (lib Regulator_Controller) (part SG3525)
      (aliases
        (alias SG3527))
      (description "Regulating Pulse Width Modulators, NOR Logic, PDIP-16/SOIC-16")
      (docs www.st.com/resource/en/datasheet/sg3525.pdf)
      (footprints
        (fp SOIC*16*3.9x9.9mm*P1.27mm*)
        (fp SOIC*16*7.5x10.3mm*P1.27mm*)
        (fp DIP*16*W7.62mm*))
      (fields
        (field (name Reference) U)
        (field (name Value) SG3525))
      (pins
        (pin (num 1) (name INV) (type input))
        (pin (num 2) (name NI) (type input))
        (pin (num 3) (name SYNC) (type passive))
        (pin (num 4) (name OSC) (type output))
        (pin (num 5) (name CT) (type passive))
        (pin (num 6) (name RT) (type passive))
        (pin (num 7) (name DISCH) (type openCol))
        (pin (num 8) (name SS) (type passive))
        (pin (num 9) (name COMP) (type passive))
        (pin (num 10) (name SD) (type passive))
        (pin (num 11) (name OUTA) (type output))
        (pin (num 12) (name GND) (type power_in))
        (pin (num 13) (name VC) (type power_in))
        (pin (num 14) (name OUTB) (type output))
        (pin (num 15) (name VIN) (type power_in))
        (pin (num 16) (name REF) (type power_in)))))
  (libraries
    (library (logical Device)
      (uri "C:\\Program Files\\KiCad\\share\\kicad\\library/Device.lib"))
    (library (logical Mechanical)
      (uri "C:\\Program Files\\KiCad\\share\\kicad\\library/Mechanical.lib"))
    (library (logical RegulatorV2-rescue)
      (uri C:\Users\utilisateur\Documents\Tripalium\GitLab\Analog_Battery_Regulator\05-Contribute\KiCAD_project\Regulateur_SI_V3/RegulatorV2-rescue.lib))
    (library (logical Regulator_Controller)
      (uri "C:\\Program Files\\KiCad\\share\\kicad\\library/Regulator_Controller.lib")))
  (nets
    (net (code 1) (name /Vcons)
      (node (ref R25) (pin 1))
      (node (ref C8) (pin 1))
      (node (ref R2) (pin 2))
      (node (ref U2) (pin 1)))
    (net (code 2) (name "Net-(R22-Pad1)")
      (node (ref R22) (pin 1))
      (node (ref U2) (pin 2))
      (node (ref R25) (pin 2)))
    (net (code 3) (name /Vmeas)
      (node (ref U2) (pin 6))
      (node (ref U2) (pin 7))
      (node (ref R1) (pin 2)))
    (net (code 4) (name "Net-(R12-Pad2)")
      (node (ref U3) (pin 1))
      (node (ref R4) (pin 1))
      (node (ref R12) (pin 2)))
    (net (code 5) (name "Net-(C3-Pad1)")
      (node (ref SW1) (pin 3))
      (node (ref U2) (pin 5))
      (node (ref C3) (pin 1)))
    (net (code 6) (name "Net-(IC1-Pad1)")
      (node (ref R12) (pin 1))
      (node (ref IC1) (pin 1))
      (node (ref R16) (pin 2)))
    (net (code 7) (name "Net-(Q2-Pad1)")
      (node (ref R28) (pin 1))
      (node (ref Q2) (pin 1)))
    (net (code 8) (name "Net-(Q3-Pad1)")
      (node (ref R27) (pin 1))
      (node (ref Q3) (pin 1)))
    (net (code 9) (name "Net-(Q4-Pad1)")
      (node (ref Q4) (pin 1))
      (node (ref R26) (pin 1)))
    (net (code 10) (name "Net-(R2-Pad1)")
      (node (ref R2) (pin 1))
      (node (ref R3) (pin 2))
      (node (ref U3) (pin 3)))
    (net (code 11) (name "Net-(R1-Pad1)")
      (node (ref R1) (pin 1))
      (node (ref U3) (pin 2))
      (node (ref R4) (pin 2)))
    (net (code 12) (name /Sensor_VDD)
      (node (ref J3) (pin 1))
      (node (ref U1) (pin 1))
      (node (ref R19) (pin 1)))
    (net (code 13) (name "Net-(CT1-Pad1)")
      (node (ref R17) (pin 2))
      (node (ref CT1) (pin 1))
      (node (ref IC1) (pin 5)))
    (net (code 14) (name "Net-(IC1-Pad6)")
      (node (ref R15) (pin 1))
      (node (ref IC1) (pin 6)))
    (net (code 15) (name /Supply)
      (node (ref U3) (pin 8))
      (node (ref Q1) (pin 3))
      (node (ref C1) (pin 1))
      (node (ref IC1) (pin 13))
      (node (ref IC1) (pin 15))
      (node (ref D2) (pin 2))
      (node (ref U2) (pin 8))
      (node (ref U2) (pin 8))
      (node (ref U1) (pin 8))
      (node (ref U1) (pin 8))
      (node (ref U3) (pin 8)))
    (net (code 16) (name "Net-(R23-Pad1)")
      (node (ref R23) (pin 1))
      (node (ref RV1) (pin 1))
      (node (ref U1) (pin 6)))
    (net (code 17) (name /Sensor_VSS)
      (node (ref U1) (pin 7))
      (node (ref J3) (pin 3))
      (node (ref RV1) (pin 2))
      (node (ref RV1) (pin 3)))
    (net (code 18) (name /Vref)
      (node (ref R3) (pin 1))
      (node (ref U2) (pin 3))
      (node (ref R20) (pin 1))
      (node (ref U1) (pin 3))
      (node (ref C4) (pin 1))
      (node (ref U3) (pin 6))
      (node (ref U3) (pin 7))
      (node (ref IC1) (pin 2)))
    (net (code 19) (name "Net-(R20-Pad2)")
      (node (ref R20) (pin 2))
      (node (ref R21) (pin 1))
      (node (ref U1) (pin 5)))
    (net (code 20) (name "Net-(CSS1-Pad1)")
      (node (ref CSS1) (pin 1))
      (node (ref IC1) (pin 8)))
    (net (code 21) (name "Net-(IC1-Pad7)")
      (node (ref IC1) (pin 7))
      (node (ref R17) (pin 1)))
    (net (code 22) (name "Net-(D4-Pad1)")
      (node (ref R28) (pin 2))
      (node (ref R27) (pin 2))
      (node (ref R26) (pin 2))
      (node (ref R29) (pin 2))
      (node (ref D4) (pin 1))
      (node (ref D5) (pin 1))
      (node (ref R24) (pin 1)))
    (net (code 23) (name "Net-(D5-Pad2)")
      (node (ref D5) (pin 2))
      (node (ref IC1) (pin 11)))
    (net (code 24) (name "Net-(D4-Pad2)")
      (node (ref IC1) (pin 14))
      (node (ref D4) (pin 2)))
    (net (code 25) (name "Net-(IC1-Pad16)")
      (node (ref IC1) (pin 16))
      (node (ref U3) (pin 5)))
    (net (code 26) (name "Net-(C2-Pad1)")
      (node (ref IC1) (pin 9))
      (node (ref C2) (pin 1)))
    (net (code 27) (name "Net-(Q5-Pad1)")
      (node (ref Q5) (pin 1))
      (node (ref R29) (pin 1)))
    (net (code 28) (name /Vin)
      (node (ref R9) (pin 1))
      (node (ref R10) (pin 1))
      (node (ref MH1) (pin 1))
      (node (ref MH4) (pin 1))
      (node (ref Q1) (pin 2))
      (node (ref R13) (pin 1))
      (node (ref R5) (pin 1))
      (node (ref D3) (pin 2))
      (node (ref D6) (pin 1)))
    (net (code 29) (name "Net-(IC1-Pad4)")
      (node (ref IC1) (pin 4)))
    (net (code 30) (name "Net-(IC1-Pad3)")
      (node (ref IC1) (pin 3)))
    (net (code 31) (name /Vdump)
      (node (ref MH3) (pin 1))
      (node (ref Q5) (pin 2))
      (node (ref Q3) (pin 2))
      (node (ref R8) (pin 2))
      (node (ref Q2) (pin 2))
      (node (ref D6) (pin 2))
      (node (ref Q4) (pin 2)))
    (net (code 32) (name "Net-(D3-Pad1)")
      (node (ref R8) (pin 1))
      (node (ref D3) (pin 1)))
    (net (code 33) (name "Net-(D2-Pad1)")
      (node (ref R7) (pin 1))
      (node (ref D2) (pin 1)))
    (net (code 34) (name "Net-(C2-Pad2)")
      (node (ref R16) (pin 1))
      (node (ref C2) (pin 2)))
    (net (code 35) (name GND)
      (node (ref U2) (pin 4))
      (node (ref R7) (pin 2))
      (node (ref Q4) (pin 3))
      (node (ref C4) (pin 2))
      (node (ref Q3) (pin 3))
      (node (ref U3) (pin 4))
      (node (ref Q2) (pin 3))
      (node (ref R24) (pin 2))
      (node (ref IC1) (pin 12))
      (node (ref Q5) (pin 3))
      (node (ref R21) (pin 2))
      (node (ref D1) (pin 2))
      (node (ref R18) (pin 2))
      (node (ref R23) (pin 2))
      (node (ref U1) (pin 4))
      (node (ref R15) (pin 2))
      (node (ref CT1) (pin 2))
      (node (ref CSS1) (pin 2))
      (node (ref MH2) (pin 1))
      (node (ref U3) (pin 4))
      (node (ref U1) (pin 4))
      (node (ref C1) (pin 2))
      (node (ref U2) (pin 4))
      (node (ref R6) (pin 2))
      (node (ref IC1) (pin 10))
      (node (ref R11) (pin 2))
      (node (ref C8) (pin 2))
      (node (ref R14) (pin 2))
      (node (ref C3) (pin 2)))
    (net (code 36) (name /48V)
      (node (ref R14) (pin 1))
      (node (ref SW1) (pin 4))
      (node (ref R13) (pin 2)))
    (net (code 37) (name /24V)
      (node (ref R10) (pin 2))
      (node (ref R11) (pin 1))
      (node (ref SW1) (pin 2)))
    (net (code 38) (name /12V)
      (node (ref R6) (pin 1))
      (node (ref R5) (pin 2))
      (node (ref SW1) (pin 1)))
    (net (code 39) (name /Vout_sensor)
      (node (ref J3) (pin 2))
      (node (ref R22) (pin 2)))
    (net (code 40) (name "Net-(R18-Pad1)")
      (node (ref U1) (pin 2))
      (node (ref R18) (pin 1))
      (node (ref R19) (pin 2)))
    (net (code 41) (name "Net-(D1-Pad1)")
      (node (ref D1) (pin 1))
      (node (ref Q1) (pin 1))
      (node (ref R9) (pin 2)))))