G04 #@! TF.FileFunction,Other,Fab,Top*
%FSLAX46Y46*%
G04 Gerber Fmt 4.6, Leading zero omitted, Abs format (unit mm)*
G04 Created by KiCad (PCBNEW 4.0.7) date Friday 18 May 2018 'à' 15:41:54*
%MOMM*%
%LPD*%
G01*
G04 APERTURE LIST*
%ADD10C,0.100000*%
%ADD11C,0.150000*%
%ADD12C,0.200000*%
G04 APERTURE END LIST*
D10*
X100860000Y-69225000D02*
X97260000Y-69225000D01*
X97260000Y-69225000D02*
X97260000Y-76825000D01*
X97260000Y-76825000D02*
X100860000Y-76825000D01*
X100860000Y-76825000D02*
X100860000Y-69225000D01*
X99060000Y-66675000D02*
X99060000Y-69225000D01*
X99060000Y-79375000D02*
X99060000Y-76825000D01*
X100860000Y-70365000D02*
X97260000Y-70365000D01*
X81658666Y-73366016D02*
G75*
G03X78719306Y-73366000I-1469666J2500016D01*
G01*
X82689000Y-70866000D02*
G75*
G03X82689000Y-70866000I-2500000J0D01*
G01*
X78719306Y-73366000D02*
X81658694Y-73366000D01*
X92528666Y-73366016D02*
G75*
G03X89589306Y-73366000I-1469666J2500016D01*
G01*
X93559000Y-70866000D02*
G75*
G03X93559000Y-70866000I-2500000J0D01*
G01*
X89589306Y-73366000D02*
X92528694Y-73366000D01*
X88148000Y-95482000D02*
X88148000Y-99082000D01*
X88148000Y-99082000D02*
X95748000Y-99082000D01*
X95748000Y-99082000D02*
X95748000Y-95482000D01*
X95748000Y-95482000D02*
X88148000Y-95482000D01*
X86868000Y-97282000D02*
X88148000Y-97282000D01*
X97028000Y-97282000D02*
X95748000Y-97282000D01*
X89288000Y-95482000D02*
X89288000Y-99082000D01*
X88148000Y-91164000D02*
X88148000Y-94764000D01*
X88148000Y-94764000D02*
X95748000Y-94764000D01*
X95748000Y-94764000D02*
X95748000Y-91164000D01*
X95748000Y-91164000D02*
X88148000Y-91164000D01*
X86868000Y-92964000D02*
X88148000Y-92964000D01*
X97028000Y-92964000D02*
X95748000Y-92964000D01*
X89288000Y-91164000D02*
X89288000Y-94764000D01*
X108901000Y-130481000D02*
X108901000Y-134081000D01*
X108901000Y-134081000D02*
X116501000Y-134081000D01*
X116501000Y-134081000D02*
X116501000Y-130481000D01*
X116501000Y-130481000D02*
X108901000Y-130481000D01*
X107621000Y-132281000D02*
X108901000Y-132281000D01*
X117781000Y-132281000D02*
X116501000Y-132281000D01*
X110041000Y-130481000D02*
X110041000Y-134081000D01*
X59182000Y-98949000D02*
X59182000Y-93599000D01*
X59182000Y-93599000D02*
X79502000Y-93599000D01*
X79502000Y-93599000D02*
X79502000Y-99949000D01*
X79502000Y-99949000D02*
X60182000Y-99949000D01*
X60182000Y-99949000D02*
X59182000Y-98949000D01*
X131067000Y-62801000D02*
X126267000Y-62801000D01*
X126267000Y-62801000D02*
X126267000Y-78401000D01*
X126267000Y-78401000D02*
X131067000Y-78401000D01*
X131067000Y-78401000D02*
X131067000Y-62801000D01*
X129067000Y-62801000D02*
X129067000Y-78401000D01*
X131067000Y-69001000D02*
X129067000Y-69001000D01*
X131067000Y-72201000D02*
X129067000Y-72201000D01*
X135088000Y-80090000D02*
X130688000Y-80090000D01*
X130688000Y-80090000D02*
X130688000Y-90090000D01*
X130688000Y-90090000D02*
X135088000Y-90090000D01*
X135088000Y-90090000D02*
X135088000Y-80090000D01*
X133818000Y-80090000D02*
X133818000Y-90090000D01*
X135088000Y-83240000D02*
X133818000Y-83240000D01*
X135088000Y-86940000D02*
X133818000Y-86940000D01*
X135088000Y-93679000D02*
X130688000Y-93679000D01*
X130688000Y-93679000D02*
X130688000Y-103679000D01*
X130688000Y-103679000D02*
X135088000Y-103679000D01*
X135088000Y-103679000D02*
X135088000Y-93679000D01*
X133818000Y-93679000D02*
X133818000Y-103679000D01*
X135088000Y-96829000D02*
X133818000Y-96829000D01*
X135088000Y-100529000D02*
X133818000Y-100529000D01*
X135342000Y-124794000D02*
X130942000Y-124794000D01*
X130942000Y-124794000D02*
X130942000Y-134794000D01*
X130942000Y-134794000D02*
X135342000Y-134794000D01*
X135342000Y-134794000D02*
X135342000Y-124794000D01*
X134072000Y-124794000D02*
X134072000Y-134794000D01*
X135342000Y-127944000D02*
X134072000Y-127944000D01*
X135342000Y-131644000D02*
X134072000Y-131644000D01*
X45872000Y-117368000D02*
X45872000Y-119868000D01*
X45872000Y-119868000D02*
X52172000Y-119868000D01*
X52172000Y-119868000D02*
X52172000Y-117368000D01*
X52172000Y-117368000D02*
X45872000Y-117368000D01*
X43942000Y-118618000D02*
X45872000Y-118618000D01*
X54102000Y-118618000D02*
X52172000Y-118618000D01*
X45872000Y-110256000D02*
X45872000Y-112756000D01*
X45872000Y-112756000D02*
X52172000Y-112756000D01*
X52172000Y-112756000D02*
X52172000Y-110256000D01*
X52172000Y-110256000D02*
X45872000Y-110256000D01*
X43942000Y-111506000D02*
X45872000Y-111506000D01*
X54102000Y-111506000D02*
X52172000Y-111506000D01*
X47981000Y-93325000D02*
X47981000Y-90825000D01*
X47981000Y-90825000D02*
X41681000Y-90825000D01*
X41681000Y-90825000D02*
X41681000Y-93325000D01*
X41681000Y-93325000D02*
X47981000Y-93325000D01*
X49911000Y-92075000D02*
X47981000Y-92075000D01*
X39751000Y-92075000D02*
X41681000Y-92075000D01*
X47981000Y-89007000D02*
X47981000Y-86507000D01*
X47981000Y-86507000D02*
X41681000Y-86507000D01*
X41681000Y-86507000D02*
X41681000Y-89007000D01*
X41681000Y-89007000D02*
X47981000Y-89007000D01*
X49911000Y-87757000D02*
X47981000Y-87757000D01*
X39751000Y-87757000D02*
X41681000Y-87757000D01*
X99035000Y-134473000D02*
X99035000Y-131973000D01*
X99035000Y-131973000D02*
X92735000Y-131973000D01*
X92735000Y-131973000D02*
X92735000Y-134473000D01*
X92735000Y-134473000D02*
X99035000Y-134473000D01*
X100965000Y-133223000D02*
X99035000Y-133223000D01*
X90805000Y-133223000D02*
X92735000Y-133223000D01*
X95143000Y-113132000D02*
X97643000Y-113132000D01*
X97643000Y-113132000D02*
X97643000Y-106832000D01*
X97643000Y-106832000D02*
X95143000Y-106832000D01*
X95143000Y-106832000D02*
X95143000Y-113132000D01*
X96393000Y-115062000D02*
X96393000Y-113132000D01*
X96393000Y-104902000D02*
X96393000Y-106832000D01*
X79019000Y-81046000D02*
X79019000Y-83546000D01*
X79019000Y-83546000D02*
X85319000Y-83546000D01*
X85319000Y-83546000D02*
X85319000Y-81046000D01*
X85319000Y-81046000D02*
X79019000Y-81046000D01*
X77089000Y-82296000D02*
X79019000Y-82296000D01*
X87249000Y-82296000D02*
X85319000Y-82296000D01*
X92986000Y-77219000D02*
X89386000Y-77219000D01*
X89386000Y-77219000D02*
X89386000Y-87119000D01*
X89386000Y-87119000D02*
X92986000Y-87119000D01*
X92986000Y-87119000D02*
X92986000Y-77219000D01*
X91186000Y-75819000D02*
X91186000Y-77219000D01*
X91186000Y-88519000D02*
X91186000Y-87119000D01*
X101545000Y-110440000D02*
X110545000Y-110440000D01*
X110545000Y-110440000D02*
X110545000Y-70440000D01*
X110545000Y-70440000D02*
X101545000Y-70440000D01*
X101545000Y-70440000D02*
X101545000Y-110440000D01*
X106045000Y-114300000D02*
X106045000Y-110440000D01*
X106045000Y-66580000D02*
X106045000Y-70440000D01*
X98908000Y-130536000D02*
X98908000Y-128036000D01*
X98908000Y-128036000D02*
X92608000Y-128036000D01*
X92608000Y-128036000D02*
X92608000Y-130536000D01*
X92608000Y-130536000D02*
X98908000Y-130536000D01*
X100838000Y-129286000D02*
X98908000Y-129286000D01*
X90678000Y-129286000D02*
X92608000Y-129286000D01*
X89809000Y-113005000D02*
X92309000Y-113005000D01*
X92309000Y-113005000D02*
X92309000Y-106705000D01*
X92309000Y-106705000D02*
X89809000Y-106705000D01*
X89809000Y-106705000D02*
X89809000Y-113005000D01*
X91059000Y-114935000D02*
X91059000Y-113005000D01*
X91059000Y-104775000D02*
X91059000Y-106705000D01*
X60681000Y-89007000D02*
X60681000Y-86507000D01*
X60681000Y-86507000D02*
X54381000Y-86507000D01*
X54381000Y-86507000D02*
X54381000Y-89007000D01*
X54381000Y-89007000D02*
X60681000Y-89007000D01*
X62611000Y-87757000D02*
X60681000Y-87757000D01*
X52451000Y-87757000D02*
X54381000Y-87757000D01*
X98908000Y-126853000D02*
X98908000Y-124353000D01*
X98908000Y-124353000D02*
X92608000Y-124353000D01*
X92608000Y-124353000D02*
X92608000Y-126853000D01*
X92608000Y-126853000D02*
X98908000Y-126853000D01*
X100838000Y-125603000D02*
X98908000Y-125603000D01*
X90678000Y-125603000D02*
X92608000Y-125603000D01*
X84348000Y-113005000D02*
X86848000Y-113005000D01*
X86848000Y-113005000D02*
X86848000Y-106705000D01*
X86848000Y-106705000D02*
X84348000Y-106705000D01*
X84348000Y-106705000D02*
X84348000Y-113005000D01*
X85598000Y-114935000D02*
X85598000Y-113005000D01*
X85598000Y-104775000D02*
X85598000Y-106705000D01*
X70846000Y-106578000D02*
X68346000Y-106578000D01*
X68346000Y-106578000D02*
X68346000Y-112878000D01*
X68346000Y-112878000D02*
X70846000Y-112878000D01*
X70846000Y-112878000D02*
X70846000Y-106578000D01*
X69596000Y-104648000D02*
X69596000Y-106578000D01*
X69596000Y-114808000D02*
X69596000Y-112878000D01*
X74270000Y-89007000D02*
X74270000Y-86507000D01*
X74270000Y-86507000D02*
X67970000Y-86507000D01*
X67970000Y-86507000D02*
X67970000Y-89007000D01*
X67970000Y-89007000D02*
X74270000Y-89007000D01*
X76200000Y-87757000D02*
X74270000Y-87757000D01*
X66040000Y-87757000D02*
X67970000Y-87757000D01*
X77069000Y-106832000D02*
X74569000Y-106832000D01*
X74569000Y-106832000D02*
X74569000Y-113132000D01*
X74569000Y-113132000D02*
X77069000Y-113132000D01*
X77069000Y-113132000D02*
X77069000Y-106832000D01*
X75819000Y-104902000D02*
X75819000Y-106832000D01*
X75819000Y-115062000D02*
X75819000Y-113132000D01*
X45872000Y-113812000D02*
X45872000Y-116312000D01*
X45872000Y-116312000D02*
X52172000Y-116312000D01*
X52172000Y-116312000D02*
X52172000Y-113812000D01*
X52172000Y-113812000D02*
X45872000Y-113812000D01*
X43942000Y-115062000D02*
X45872000Y-115062000D01*
X54102000Y-115062000D02*
X52172000Y-115062000D01*
X40152000Y-132944000D02*
X42652000Y-132944000D01*
X42652000Y-132944000D02*
X42652000Y-126644000D01*
X42652000Y-126644000D02*
X40152000Y-126644000D01*
X40152000Y-126644000D02*
X40152000Y-132944000D01*
X41402000Y-134874000D02*
X41402000Y-132944000D01*
X41402000Y-124714000D02*
X41402000Y-126644000D01*
X59670000Y-124559000D02*
X57170000Y-124559000D01*
X57170000Y-124559000D02*
X57170000Y-130859000D01*
X57170000Y-130859000D02*
X59670000Y-130859000D01*
X59670000Y-130859000D02*
X59670000Y-124559000D01*
X58420000Y-122629000D02*
X58420000Y-124559000D01*
X58420000Y-132789000D02*
X58420000Y-130859000D01*
X52426000Y-140823000D02*
X52426000Y-138323000D01*
X52426000Y-138323000D02*
X46126000Y-138323000D01*
X46126000Y-138323000D02*
X46126000Y-140823000D01*
X46126000Y-140823000D02*
X52426000Y-140823000D01*
X54356000Y-139573000D02*
X52426000Y-139573000D01*
X44196000Y-139573000D02*
X46126000Y-139573000D01*
X63151000Y-124559000D02*
X60651000Y-124559000D01*
X60651000Y-124559000D02*
X60651000Y-130859000D01*
X60651000Y-130859000D02*
X63151000Y-130859000D01*
X63151000Y-130859000D02*
X63151000Y-124559000D01*
X61901000Y-122629000D02*
X61901000Y-124559000D01*
X61901000Y-132789000D02*
X61901000Y-130859000D01*
X52299000Y-137394000D02*
X52299000Y-134894000D01*
X52299000Y-134894000D02*
X45999000Y-134894000D01*
X45999000Y-134894000D02*
X45999000Y-137394000D01*
X45999000Y-137394000D02*
X52299000Y-137394000D01*
X54229000Y-136144000D02*
X52299000Y-136144000D01*
X44069000Y-136144000D02*
X45999000Y-136144000D01*
X94844000Y-102596000D02*
X94844000Y-100096000D01*
X94844000Y-100096000D02*
X88544000Y-100096000D01*
X88544000Y-100096000D02*
X88544000Y-102596000D01*
X88544000Y-102596000D02*
X94844000Y-102596000D01*
X96774000Y-101346000D02*
X94844000Y-101346000D01*
X86614000Y-101346000D02*
X88544000Y-101346000D01*
X76556000Y-119233000D02*
X76556000Y-116733000D01*
X76556000Y-116733000D02*
X70256000Y-116733000D01*
X70256000Y-116733000D02*
X70256000Y-119233000D01*
X70256000Y-119233000D02*
X76556000Y-119233000D01*
X78486000Y-117983000D02*
X76556000Y-117983000D01*
X68326000Y-117983000D02*
X70256000Y-117983000D01*
X124261000Y-122631000D02*
X124261000Y-119431000D01*
X124261000Y-119431000D02*
X115261000Y-119431000D01*
X115261000Y-119431000D02*
X115261000Y-122631000D01*
X115261000Y-122631000D02*
X124261000Y-122631000D01*
X127381000Y-121031000D02*
X124261000Y-121031000D01*
X112141000Y-121031000D02*
X115261000Y-121031000D01*
X124388000Y-97739000D02*
X124388000Y-94539000D01*
X124388000Y-94539000D02*
X115388000Y-94539000D01*
X115388000Y-94539000D02*
X115388000Y-97739000D01*
X115388000Y-97739000D02*
X124388000Y-97739000D01*
X127508000Y-96139000D02*
X124388000Y-96139000D01*
X112268000Y-96139000D02*
X115388000Y-96139000D01*
X124769000Y-84023000D02*
X124769000Y-80823000D01*
X124769000Y-80823000D02*
X115769000Y-80823000D01*
X115769000Y-80823000D02*
X115769000Y-84023000D01*
X115769000Y-84023000D02*
X124769000Y-84023000D01*
X127889000Y-82423000D02*
X124769000Y-82423000D01*
X112649000Y-82423000D02*
X115769000Y-82423000D01*
X46593000Y-122682000D02*
X51943000Y-122682000D01*
X51943000Y-122682000D02*
X51943000Y-132842000D01*
X51943000Y-132842000D02*
X45593000Y-132842000D01*
X45593000Y-132842000D02*
X45593000Y-123682000D01*
X45593000Y-123682000D02*
X46593000Y-122682000D01*
X76962000Y-126222000D02*
X76962000Y-131572000D01*
X76962000Y-131572000D02*
X66802000Y-131572000D01*
X66802000Y-131572000D02*
X66802000Y-125222000D01*
X66802000Y-125222000D02*
X75962000Y-125222000D01*
X75962000Y-125222000D02*
X76962000Y-126222000D01*
X46339000Y-97028000D02*
X51689000Y-97028000D01*
X51689000Y-97028000D02*
X51689000Y-107188000D01*
X51689000Y-107188000D02*
X45339000Y-107188000D01*
X45339000Y-107188000D02*
X45339000Y-98028000D01*
X45339000Y-98028000D02*
X46339000Y-97028000D01*
X135088000Y-108411000D02*
X130688000Y-108411000D01*
X130688000Y-108411000D02*
X130688000Y-118411000D01*
X130688000Y-118411000D02*
X135088000Y-118411000D01*
X135088000Y-118411000D02*
X135088000Y-108411000D01*
X133818000Y-108411000D02*
X133818000Y-118411000D01*
X135088000Y-111561000D02*
X133818000Y-111561000D01*
X135088000Y-115261000D02*
X133818000Y-115261000D01*
X124642000Y-107899000D02*
X124642000Y-104699000D01*
X124642000Y-104699000D02*
X115642000Y-104699000D01*
X115642000Y-104699000D02*
X115642000Y-107899000D01*
X115642000Y-107899000D02*
X124642000Y-107899000D01*
X127762000Y-106299000D02*
X124642000Y-106299000D01*
X112522000Y-106299000D02*
X115642000Y-106299000D01*
D11*
X117415857Y-75637856D02*
X117415857Y-76323571D01*
X117415857Y-75980713D02*
X116215857Y-75980713D01*
X116387286Y-76094999D01*
X116501571Y-76209285D01*
X116558714Y-76323571D01*
X116215857Y-74894999D02*
X116215857Y-74780714D01*
X116273000Y-74666428D01*
X116330143Y-74609285D01*
X116444429Y-74552142D01*
X116673000Y-74494999D01*
X116958714Y-74494999D01*
X117187286Y-74552142D01*
X117301571Y-74609285D01*
X117358714Y-74666428D01*
X117415857Y-74780714D01*
X117415857Y-74894999D01*
X117358714Y-75009285D01*
X117301571Y-75066428D01*
X117187286Y-75123571D01*
X116958714Y-75180714D01*
X116673000Y-75180714D01*
X116444429Y-75123571D01*
X116330143Y-75066428D01*
X116273000Y-75009285D01*
X116215857Y-74894999D01*
X116215857Y-73752142D02*
X116215857Y-73637857D01*
X116273000Y-73523571D01*
X116330143Y-73466428D01*
X116444429Y-73409285D01*
X116673000Y-73352142D01*
X116958714Y-73352142D01*
X117187286Y-73409285D01*
X117301571Y-73466428D01*
X117358714Y-73523571D01*
X117415857Y-73637857D01*
X117415857Y-73752142D01*
X117358714Y-73866428D01*
X117301571Y-73923571D01*
X117187286Y-73980714D01*
X116958714Y-74037857D01*
X116673000Y-74037857D01*
X116444429Y-73980714D01*
X116330143Y-73923571D01*
X116273000Y-73866428D01*
X116215857Y-73752142D01*
X116615857Y-72837857D02*
X117415857Y-72837857D01*
X116730143Y-72837857D02*
X116673000Y-72780714D01*
X116615857Y-72666428D01*
X116615857Y-72495000D01*
X116673000Y-72380714D01*
X116787286Y-72323571D01*
X117415857Y-72323571D01*
X80680143Y-89533143D02*
X80737286Y-89476000D01*
X80851572Y-89418857D01*
X81137286Y-89418857D01*
X81251572Y-89476000D01*
X81308715Y-89533143D01*
X81365858Y-89647429D01*
X81365858Y-89761714D01*
X81308715Y-89933143D01*
X80623001Y-90618857D01*
X81365858Y-90618857D01*
X81880143Y-90504571D02*
X81937286Y-90561714D01*
X81880143Y-90618857D01*
X81823000Y-90561714D01*
X81880143Y-90504571D01*
X81880143Y-90618857D01*
X82394429Y-89533143D02*
X82451572Y-89476000D01*
X82565858Y-89418857D01*
X82851572Y-89418857D01*
X82965858Y-89476000D01*
X83023001Y-89533143D01*
X83080144Y-89647429D01*
X83080144Y-89761714D01*
X83023001Y-89933143D01*
X82337287Y-90618857D01*
X83080144Y-90618857D01*
X84108715Y-89818857D02*
X84108715Y-90618857D01*
X83594429Y-89818857D02*
X83594429Y-90447429D01*
X83651572Y-90561714D01*
X83765858Y-90618857D01*
X83937286Y-90618857D01*
X84051572Y-90561714D01*
X84108715Y-90504571D01*
X82465572Y-129267857D02*
X81779857Y-129267857D01*
X82122715Y-129267857D02*
X82122715Y-128067857D01*
X82008429Y-128239286D01*
X81894143Y-128353571D01*
X81779857Y-128410714D01*
X83208429Y-128067857D02*
X83322714Y-128067857D01*
X83437000Y-128125000D01*
X83494143Y-128182143D01*
X83551286Y-128296429D01*
X83608429Y-128525000D01*
X83608429Y-128810714D01*
X83551286Y-129039286D01*
X83494143Y-129153571D01*
X83437000Y-129210714D01*
X83322714Y-129267857D01*
X83208429Y-129267857D01*
X83094143Y-129210714D01*
X83037000Y-129153571D01*
X82979857Y-129039286D01*
X82922714Y-128810714D01*
X82922714Y-128525000D01*
X82979857Y-128296429D01*
X83037000Y-128182143D01*
X83094143Y-128125000D01*
X83208429Y-128067857D01*
X84122714Y-128467857D02*
X84122714Y-129267857D01*
X84122714Y-128582143D02*
X84179857Y-128525000D01*
X84294143Y-128467857D01*
X84465571Y-128467857D01*
X84579857Y-128525000D01*
X84637000Y-128639286D01*
X84637000Y-129267857D01*
X56855857Y-110255856D02*
X56855857Y-110941571D01*
X56855857Y-110598713D02*
X55655857Y-110598713D01*
X55827286Y-110712999D01*
X55941571Y-110827285D01*
X55998714Y-110941571D01*
X55655857Y-109512999D02*
X55655857Y-109398714D01*
X55713000Y-109284428D01*
X55770143Y-109227285D01*
X55884429Y-109170142D01*
X56113000Y-109112999D01*
X56398714Y-109112999D01*
X56627286Y-109170142D01*
X56741571Y-109227285D01*
X56798714Y-109284428D01*
X56855857Y-109398714D01*
X56855857Y-109512999D01*
X56798714Y-109627285D01*
X56741571Y-109684428D01*
X56627286Y-109741571D01*
X56398714Y-109798714D01*
X56113000Y-109798714D01*
X55884429Y-109741571D01*
X55770143Y-109684428D01*
X55713000Y-109627285D01*
X55655857Y-109512999D01*
X55655857Y-108370142D02*
X55655857Y-108255857D01*
X55713000Y-108141571D01*
X55770143Y-108084428D01*
X55884429Y-108027285D01*
X56113000Y-107970142D01*
X56398714Y-107970142D01*
X56627286Y-108027285D01*
X56741571Y-108084428D01*
X56798714Y-108141571D01*
X56855857Y-108255857D01*
X56855857Y-108370142D01*
X56798714Y-108484428D01*
X56741571Y-108541571D01*
X56627286Y-108598714D01*
X56398714Y-108655857D01*
X56113000Y-108655857D01*
X55884429Y-108598714D01*
X55770143Y-108541571D01*
X55713000Y-108484428D01*
X55655857Y-108370142D01*
X56055857Y-107455857D02*
X56855857Y-107455857D01*
X56170143Y-107455857D02*
X56113000Y-107398714D01*
X56055857Y-107284428D01*
X56055857Y-107113000D01*
X56113000Y-106998714D01*
X56227286Y-106941571D01*
X56855857Y-106941571D01*
X109147144Y-125043857D02*
X108461429Y-125043857D01*
X108804287Y-125043857D02*
X108804287Y-123843857D01*
X108690001Y-124015286D01*
X108575715Y-124129571D01*
X108461429Y-124186714D01*
X109890001Y-123843857D02*
X110004286Y-123843857D01*
X110118572Y-123901000D01*
X110175715Y-123958143D01*
X110232858Y-124072429D01*
X110290001Y-124301000D01*
X110290001Y-124586714D01*
X110232858Y-124815286D01*
X110175715Y-124929571D01*
X110118572Y-124986714D01*
X110004286Y-125043857D01*
X109890001Y-125043857D01*
X109775715Y-124986714D01*
X109718572Y-124929571D01*
X109661429Y-124815286D01*
X109604286Y-124586714D01*
X109604286Y-124301000D01*
X109661429Y-124072429D01*
X109718572Y-123958143D01*
X109775715Y-123901000D01*
X109890001Y-123843857D01*
X111032858Y-123843857D02*
X111147143Y-123843857D01*
X111261429Y-123901000D01*
X111318572Y-123958143D01*
X111375715Y-124072429D01*
X111432858Y-124301000D01*
X111432858Y-124586714D01*
X111375715Y-124815286D01*
X111318572Y-124929571D01*
X111261429Y-124986714D01*
X111147143Y-125043857D01*
X111032858Y-125043857D01*
X110918572Y-124986714D01*
X110861429Y-124929571D01*
X110804286Y-124815286D01*
X110747143Y-124586714D01*
X110747143Y-124301000D01*
X110804286Y-124072429D01*
X110861429Y-123958143D01*
X110918572Y-123901000D01*
X111032858Y-123843857D01*
X111947143Y-124243857D02*
X111947143Y-125043857D01*
X111947143Y-124358143D02*
X112004286Y-124301000D01*
X112118572Y-124243857D01*
X112290000Y-124243857D01*
X112404286Y-124301000D01*
X112461429Y-124415286D01*
X112461429Y-125043857D01*
X83633857Y-109864428D02*
X83633857Y-110550143D01*
X83633857Y-110207285D02*
X82433857Y-110207285D01*
X82605286Y-110321571D01*
X82719571Y-110435857D01*
X82776714Y-110550143D01*
X82433857Y-109121571D02*
X82433857Y-109007286D01*
X82491000Y-108893000D01*
X82548143Y-108835857D01*
X82662429Y-108778714D01*
X82891000Y-108721571D01*
X83176714Y-108721571D01*
X83405286Y-108778714D01*
X83519571Y-108835857D01*
X83576714Y-108893000D01*
X83633857Y-109007286D01*
X83633857Y-109121571D01*
X83576714Y-109235857D01*
X83519571Y-109293000D01*
X83405286Y-109350143D01*
X83176714Y-109407286D01*
X82891000Y-109407286D01*
X82662429Y-109350143D01*
X82548143Y-109293000D01*
X82491000Y-109235857D01*
X82433857Y-109121571D01*
X82833857Y-108207286D02*
X83633857Y-108207286D01*
X82948143Y-108207286D02*
X82891000Y-108150143D01*
X82833857Y-108035857D01*
X82833857Y-107864429D01*
X82891000Y-107750143D01*
X83005286Y-107693000D01*
X83633857Y-107693000D01*
X62443857Y-110255856D02*
X62443857Y-110941571D01*
X62443857Y-110598713D02*
X61243857Y-110598713D01*
X61415286Y-110712999D01*
X61529571Y-110827285D01*
X61586714Y-110941571D01*
X61243857Y-109512999D02*
X61243857Y-109398714D01*
X61301000Y-109284428D01*
X61358143Y-109227285D01*
X61472429Y-109170142D01*
X61701000Y-109112999D01*
X61986714Y-109112999D01*
X62215286Y-109170142D01*
X62329571Y-109227285D01*
X62386714Y-109284428D01*
X62443857Y-109398714D01*
X62443857Y-109512999D01*
X62386714Y-109627285D01*
X62329571Y-109684428D01*
X62215286Y-109741571D01*
X61986714Y-109798714D01*
X61701000Y-109798714D01*
X61472429Y-109741571D01*
X61358143Y-109684428D01*
X61301000Y-109627285D01*
X61243857Y-109512999D01*
X61243857Y-108370142D02*
X61243857Y-108255857D01*
X61301000Y-108141571D01*
X61358143Y-108084428D01*
X61472429Y-108027285D01*
X61701000Y-107970142D01*
X61986714Y-107970142D01*
X62215286Y-108027285D01*
X62329571Y-108084428D01*
X62386714Y-108141571D01*
X62443857Y-108255857D01*
X62443857Y-108370142D01*
X62386714Y-108484428D01*
X62329571Y-108541571D01*
X62215286Y-108598714D01*
X61986714Y-108655857D01*
X61701000Y-108655857D01*
X61472429Y-108598714D01*
X61358143Y-108541571D01*
X61301000Y-108484428D01*
X61243857Y-108370142D01*
X61643857Y-107455857D02*
X62443857Y-107455857D01*
X61758143Y-107455857D02*
X61701000Y-107398714D01*
X61643857Y-107284428D01*
X61643857Y-107113000D01*
X61701000Y-106998714D01*
X61815286Y-106941571D01*
X62443857Y-106941571D01*
X96652381Y-75667857D02*
X96652381Y-76239286D01*
X96652381Y-75953572D02*
X95652381Y-75953572D01*
X95795238Y-76048810D01*
X95890476Y-76144048D01*
X95938095Y-76239286D01*
X96652381Y-75239286D02*
X95652381Y-75239286D01*
X96652381Y-74667857D01*
X95652381Y-74667857D01*
X95652381Y-73715476D02*
X95652381Y-74191667D01*
X96128571Y-74239286D01*
X96080952Y-74191667D01*
X96033333Y-74096429D01*
X96033333Y-73858333D01*
X96080952Y-73763095D01*
X96128571Y-73715476D01*
X96223810Y-73667857D01*
X96461905Y-73667857D01*
X96557143Y-73715476D01*
X96604762Y-73763095D01*
X96652381Y-73858333D01*
X96652381Y-74096429D01*
X96604762Y-74191667D01*
X96557143Y-74239286D01*
X95652381Y-73334524D02*
X95652381Y-72715476D01*
X96033333Y-73048810D01*
X96033333Y-72905952D01*
X96080952Y-72810714D01*
X96128571Y-72763095D01*
X96223810Y-72715476D01*
X96461905Y-72715476D01*
X96557143Y-72763095D01*
X96604762Y-72810714D01*
X96652381Y-72905952D01*
X96652381Y-73191667D01*
X96604762Y-73286905D01*
X96557143Y-73334524D01*
X95652381Y-71810714D02*
X95652381Y-72286905D01*
X96128571Y-72334524D01*
X96080952Y-72286905D01*
X96033333Y-72191667D01*
X96033333Y-71953571D01*
X96080952Y-71858333D01*
X96128571Y-71810714D01*
X96223810Y-71763095D01*
X96461905Y-71763095D01*
X96557143Y-71810714D01*
X96604762Y-71858333D01*
X96652381Y-71953571D01*
X96652381Y-72191667D01*
X96604762Y-72286905D01*
X96557143Y-72334524D01*
X95652381Y-71429762D02*
X95652381Y-70810714D01*
X96033333Y-71144048D01*
X96033333Y-71001190D01*
X96080952Y-70905952D01*
X96128571Y-70858333D01*
X96223810Y-70810714D01*
X96461905Y-70810714D01*
X96557143Y-70858333D01*
X96604762Y-70905952D01*
X96652381Y-71001190D01*
X96652381Y-71286905D01*
X96604762Y-71382143D01*
X96557143Y-71429762D01*
X96128571Y-70048809D02*
X96176190Y-69905952D01*
X96223810Y-69858333D01*
X96319048Y-69810714D01*
X96461905Y-69810714D01*
X96557143Y-69858333D01*
X96604762Y-69905952D01*
X96652381Y-70001190D01*
X96652381Y-70382143D01*
X95652381Y-70382143D01*
X95652381Y-70048809D01*
X95700000Y-69953571D01*
X95747619Y-69905952D01*
X95842857Y-69858333D01*
X95938095Y-69858333D01*
X96033333Y-69905952D01*
X96080952Y-69953571D01*
X96128571Y-70048809D01*
X96128571Y-70382143D01*
X99512381Y-73763095D02*
X98512381Y-73763095D01*
X98512381Y-73525000D01*
X98560000Y-73382142D01*
X98655238Y-73286904D01*
X98750476Y-73239285D01*
X98940952Y-73191666D01*
X99083810Y-73191666D01*
X99274286Y-73239285D01*
X99369524Y-73286904D01*
X99464762Y-73382142D01*
X99512381Y-73525000D01*
X99512381Y-73763095D01*
X99512381Y-72239285D02*
X99512381Y-72810714D01*
X99512381Y-72525000D02*
X98512381Y-72525000D01*
X98655238Y-72620238D01*
X98750476Y-72715476D01*
X98798095Y-72810714D01*
X76717143Y-67201381D02*
X76240952Y-67201381D01*
X76240952Y-66201381D01*
X77050476Y-66677571D02*
X77383810Y-66677571D01*
X77526667Y-67201381D02*
X77050476Y-67201381D01*
X77050476Y-66201381D01*
X77526667Y-66201381D01*
X77955238Y-67201381D02*
X77955238Y-66201381D01*
X78193333Y-66201381D01*
X78336191Y-66249000D01*
X78431429Y-66344238D01*
X78479048Y-66439476D01*
X78526667Y-66629952D01*
X78526667Y-66772810D01*
X78479048Y-66963286D01*
X78431429Y-67058524D01*
X78336191Y-67153762D01*
X78193333Y-67201381D01*
X77955238Y-67201381D01*
X80240953Y-66249000D02*
X80145715Y-66201381D01*
X80002858Y-66201381D01*
X79860000Y-66249000D01*
X79764762Y-66344238D01*
X79717143Y-66439476D01*
X79669524Y-66629952D01*
X79669524Y-66772810D01*
X79717143Y-66963286D01*
X79764762Y-67058524D01*
X79860000Y-67153762D01*
X80002858Y-67201381D01*
X80098096Y-67201381D01*
X80240953Y-67153762D01*
X80288572Y-67106143D01*
X80288572Y-66772810D01*
X80098096Y-66772810D01*
X80717143Y-67201381D02*
X80717143Y-66534714D01*
X80717143Y-66725190D02*
X80764762Y-66629952D01*
X80812381Y-66582333D01*
X80907619Y-66534714D01*
X81002858Y-66534714D01*
X81717144Y-67153762D02*
X81621906Y-67201381D01*
X81431429Y-67201381D01*
X81336191Y-67153762D01*
X81288572Y-67058524D01*
X81288572Y-66677571D01*
X81336191Y-66582333D01*
X81431429Y-66534714D01*
X81621906Y-66534714D01*
X81717144Y-66582333D01*
X81764763Y-66677571D01*
X81764763Y-66772810D01*
X81288572Y-66868048D01*
X82574287Y-67153762D02*
X82479049Y-67201381D01*
X82288572Y-67201381D01*
X82193334Y-67153762D01*
X82145715Y-67058524D01*
X82145715Y-66677571D01*
X82193334Y-66582333D01*
X82288572Y-66534714D01*
X82479049Y-66534714D01*
X82574287Y-66582333D01*
X82621906Y-66677571D01*
X82621906Y-66772810D01*
X82145715Y-66868048D01*
X83050477Y-66534714D02*
X83050477Y-67201381D01*
X83050477Y-66629952D02*
X83098096Y-66582333D01*
X83193334Y-66534714D01*
X83336192Y-66534714D01*
X83431430Y-66582333D01*
X83479049Y-66677571D01*
X83479049Y-67201381D01*
D12*
X80550905Y-71476476D02*
X79750905Y-71476476D01*
X79750905Y-71286000D01*
X79789000Y-71171714D01*
X79865190Y-71095523D01*
X79941381Y-71057428D01*
X80093762Y-71019333D01*
X80208048Y-71019333D01*
X80360429Y-71057428D01*
X80436619Y-71095523D01*
X80512810Y-71171714D01*
X80550905Y-71286000D01*
X80550905Y-71476476D01*
X79827095Y-70714571D02*
X79789000Y-70676476D01*
X79750905Y-70600285D01*
X79750905Y-70409809D01*
X79789000Y-70333619D01*
X79827095Y-70295523D01*
X79903286Y-70257428D01*
X79979476Y-70257428D01*
X80093762Y-70295523D01*
X80550905Y-70752666D01*
X80550905Y-70257428D01*
D11*
X88960238Y-67201381D02*
X88484047Y-67201381D01*
X88484047Y-66201381D01*
X89293571Y-66677571D02*
X89626905Y-66677571D01*
X89769762Y-67201381D02*
X89293571Y-67201381D01*
X89293571Y-66201381D01*
X89769762Y-66201381D01*
X90198333Y-67201381D02*
X90198333Y-66201381D01*
X90436428Y-66201381D01*
X90579286Y-66249000D01*
X90674524Y-66344238D01*
X90722143Y-66439476D01*
X90769762Y-66629952D01*
X90769762Y-66772810D01*
X90722143Y-66963286D01*
X90674524Y-67058524D01*
X90579286Y-67153762D01*
X90436428Y-67201381D01*
X90198333Y-67201381D01*
X92531667Y-67201381D02*
X92198333Y-66725190D01*
X91960238Y-67201381D02*
X91960238Y-66201381D01*
X92341191Y-66201381D01*
X92436429Y-66249000D01*
X92484048Y-66296619D01*
X92531667Y-66391857D01*
X92531667Y-66534714D01*
X92484048Y-66629952D01*
X92436429Y-66677571D01*
X92341191Y-66725190D01*
X91960238Y-66725190D01*
X93341191Y-67153762D02*
X93245953Y-67201381D01*
X93055476Y-67201381D01*
X92960238Y-67153762D01*
X92912619Y-67058524D01*
X92912619Y-66677571D01*
X92960238Y-66582333D01*
X93055476Y-66534714D01*
X93245953Y-66534714D01*
X93341191Y-66582333D01*
X93388810Y-66677571D01*
X93388810Y-66772810D01*
X92912619Y-66868048D01*
X94245953Y-67201381D02*
X94245953Y-66201381D01*
X94245953Y-67153762D02*
X94150715Y-67201381D01*
X93960238Y-67201381D01*
X93865000Y-67153762D01*
X93817381Y-67106143D01*
X93769762Y-67010905D01*
X93769762Y-66725190D01*
X93817381Y-66629952D01*
X93865000Y-66582333D01*
X93960238Y-66534714D01*
X94150715Y-66534714D01*
X94245953Y-66582333D01*
D12*
X91420905Y-71476476D02*
X90620905Y-71476476D01*
X90620905Y-71286000D01*
X90659000Y-71171714D01*
X90735190Y-71095523D01*
X90811381Y-71057428D01*
X90963762Y-71019333D01*
X91078048Y-71019333D01*
X91230429Y-71057428D01*
X91306619Y-71095523D01*
X91382810Y-71171714D01*
X91420905Y-71286000D01*
X91420905Y-71476476D01*
X90620905Y-70752666D02*
X90620905Y-70257428D01*
X90925667Y-70524095D01*
X90925667Y-70409809D01*
X90963762Y-70333619D01*
X91001857Y-70295523D01*
X91078048Y-70257428D01*
X91268524Y-70257428D01*
X91344714Y-70295523D01*
X91382810Y-70333619D01*
X91420905Y-70409809D01*
X91420905Y-70638381D01*
X91382810Y-70714571D01*
X91344714Y-70752666D01*
D11*
X83054714Y-99665762D02*
X83197571Y-99713381D01*
X83435667Y-99713381D01*
X83530905Y-99665762D01*
X83578524Y-99618143D01*
X83626143Y-99522905D01*
X83626143Y-99427667D01*
X83578524Y-99332429D01*
X83530905Y-99284810D01*
X83435667Y-99237190D01*
X83245190Y-99189571D01*
X83149952Y-99141952D01*
X83102333Y-99094333D01*
X83054714Y-98999095D01*
X83054714Y-98903857D01*
X83102333Y-98808619D01*
X83149952Y-98761000D01*
X83245190Y-98713381D01*
X83483286Y-98713381D01*
X83626143Y-98761000D01*
X84388048Y-99189571D02*
X84530905Y-99237190D01*
X84578524Y-99284810D01*
X84626143Y-99380048D01*
X84626143Y-99522905D01*
X84578524Y-99618143D01*
X84530905Y-99665762D01*
X84435667Y-99713381D01*
X84054714Y-99713381D01*
X84054714Y-98713381D01*
X84388048Y-98713381D01*
X84483286Y-98761000D01*
X84530905Y-98808619D01*
X84578524Y-98903857D01*
X84578524Y-98999095D01*
X84530905Y-99094333D01*
X84483286Y-99141952D01*
X84388048Y-99189571D01*
X84054714Y-99189571D01*
X85007095Y-98808619D02*
X85054714Y-98761000D01*
X85149952Y-98713381D01*
X85388048Y-98713381D01*
X85483286Y-98761000D01*
X85530905Y-98808619D01*
X85578524Y-98903857D01*
X85578524Y-98999095D01*
X85530905Y-99141952D01*
X84959476Y-99713381D01*
X85578524Y-99713381D01*
X86435667Y-98713381D02*
X86245190Y-98713381D01*
X86149952Y-98761000D01*
X86102333Y-98808619D01*
X86007095Y-98951476D01*
X85959476Y-99141952D01*
X85959476Y-99522905D01*
X86007095Y-99618143D01*
X86054714Y-99665762D01*
X86149952Y-99713381D01*
X86340429Y-99713381D01*
X86435667Y-99665762D01*
X86483286Y-99618143D01*
X86530905Y-99522905D01*
X86530905Y-99284810D01*
X86483286Y-99189571D01*
X86435667Y-99141952D01*
X86340429Y-99094333D01*
X86149952Y-99094333D01*
X86054714Y-99141952D01*
X86007095Y-99189571D01*
X85959476Y-99284810D01*
X87149952Y-98713381D02*
X87245191Y-98713381D01*
X87340429Y-98761000D01*
X87388048Y-98808619D01*
X87435667Y-98903857D01*
X87483286Y-99094333D01*
X87483286Y-99332429D01*
X87435667Y-99522905D01*
X87388048Y-99618143D01*
X87340429Y-99665762D01*
X87245191Y-99713381D01*
X87149952Y-99713381D01*
X87054714Y-99665762D01*
X87007095Y-99618143D01*
X86959476Y-99522905D01*
X86911857Y-99332429D01*
X86911857Y-99094333D01*
X86959476Y-98903857D01*
X87007095Y-98808619D01*
X87054714Y-98761000D01*
X87149952Y-98713381D01*
X91209905Y-98697381D02*
X91209905Y-97697381D01*
X91448000Y-97697381D01*
X91590858Y-97745000D01*
X91686096Y-97840238D01*
X91733715Y-97935476D01*
X91781334Y-98125952D01*
X91781334Y-98268810D01*
X91733715Y-98459286D01*
X91686096Y-98554524D01*
X91590858Y-98649762D01*
X91448000Y-98697381D01*
X91209905Y-98697381D01*
X92638477Y-98030714D02*
X92638477Y-98697381D01*
X92400381Y-97649762D02*
X92162286Y-98364048D01*
X92781334Y-98364048D01*
X89733714Y-97125762D02*
X89876571Y-97173381D01*
X90114667Y-97173381D01*
X90209905Y-97125762D01*
X90257524Y-97078143D01*
X90305143Y-96982905D01*
X90305143Y-96887667D01*
X90257524Y-96792429D01*
X90209905Y-96744810D01*
X90114667Y-96697190D01*
X89924190Y-96649571D01*
X89828952Y-96601952D01*
X89781333Y-96554333D01*
X89733714Y-96459095D01*
X89733714Y-96363857D01*
X89781333Y-96268619D01*
X89828952Y-96221000D01*
X89924190Y-96173381D01*
X90162286Y-96173381D01*
X90305143Y-96221000D01*
X91067048Y-96649571D02*
X91209905Y-96697190D01*
X91257524Y-96744810D01*
X91305143Y-96840048D01*
X91305143Y-96982905D01*
X91257524Y-97078143D01*
X91209905Y-97125762D01*
X91114667Y-97173381D01*
X90733714Y-97173381D01*
X90733714Y-96173381D01*
X91067048Y-96173381D01*
X91162286Y-96221000D01*
X91209905Y-96268619D01*
X91257524Y-96363857D01*
X91257524Y-96459095D01*
X91209905Y-96554333D01*
X91162286Y-96601952D01*
X91067048Y-96649571D01*
X90733714Y-96649571D01*
X91686095Y-96268619D02*
X91733714Y-96221000D01*
X91828952Y-96173381D01*
X92067048Y-96173381D01*
X92162286Y-96221000D01*
X92209905Y-96268619D01*
X92257524Y-96363857D01*
X92257524Y-96459095D01*
X92209905Y-96601952D01*
X91638476Y-97173381D01*
X92257524Y-97173381D01*
X93114667Y-96173381D02*
X92924190Y-96173381D01*
X92828952Y-96221000D01*
X92781333Y-96268619D01*
X92686095Y-96411476D01*
X92638476Y-96601952D01*
X92638476Y-96982905D01*
X92686095Y-97078143D01*
X92733714Y-97125762D01*
X92828952Y-97173381D01*
X93019429Y-97173381D01*
X93114667Y-97125762D01*
X93162286Y-97078143D01*
X93209905Y-96982905D01*
X93209905Y-96744810D01*
X93162286Y-96649571D01*
X93114667Y-96601952D01*
X93019429Y-96554333D01*
X92828952Y-96554333D01*
X92733714Y-96601952D01*
X92686095Y-96649571D01*
X92638476Y-96744810D01*
X93828952Y-96173381D02*
X93924191Y-96173381D01*
X94019429Y-96221000D01*
X94067048Y-96268619D01*
X94114667Y-96363857D01*
X94162286Y-96554333D01*
X94162286Y-96792429D01*
X94114667Y-96982905D01*
X94067048Y-97078143D01*
X94019429Y-97125762D01*
X93924191Y-97173381D01*
X93828952Y-97173381D01*
X93733714Y-97125762D01*
X93686095Y-97078143D01*
X93638476Y-96982905D01*
X93590857Y-96792429D01*
X93590857Y-96554333D01*
X93638476Y-96363857D01*
X93686095Y-96268619D01*
X93733714Y-96221000D01*
X93828952Y-96173381D01*
X91209905Y-93416381D02*
X91209905Y-92416381D01*
X91448000Y-92416381D01*
X91590858Y-92464000D01*
X91686096Y-92559238D01*
X91733715Y-92654476D01*
X91781334Y-92844952D01*
X91781334Y-92987810D01*
X91733715Y-93178286D01*
X91686096Y-93273524D01*
X91590858Y-93368762D01*
X91448000Y-93416381D01*
X91209905Y-93416381D01*
X92686096Y-92416381D02*
X92209905Y-92416381D01*
X92162286Y-92892571D01*
X92209905Y-92844952D01*
X92305143Y-92797333D01*
X92543239Y-92797333D01*
X92638477Y-92844952D01*
X92686096Y-92892571D01*
X92733715Y-92987810D01*
X92733715Y-93225905D01*
X92686096Y-93321143D01*
X92638477Y-93368762D01*
X92543239Y-93416381D01*
X92305143Y-93416381D01*
X92209905Y-93368762D01*
X92162286Y-93321143D01*
X111962905Y-132733381D02*
X111962905Y-131733381D01*
X112201000Y-131733381D01*
X112343858Y-131781000D01*
X112439096Y-131876238D01*
X112486715Y-131971476D01*
X112534334Y-132161952D01*
X112534334Y-132304810D01*
X112486715Y-132495286D01*
X112439096Y-132590524D01*
X112343858Y-132685762D01*
X112201000Y-132733381D01*
X111962905Y-132733381D01*
X113391477Y-131733381D02*
X113201000Y-131733381D01*
X113105762Y-131781000D01*
X113058143Y-131828619D01*
X112962905Y-131971476D01*
X112915286Y-132161952D01*
X112915286Y-132542905D01*
X112962905Y-132638143D01*
X113010524Y-132685762D01*
X113105762Y-132733381D01*
X113296239Y-132733381D01*
X113391477Y-132685762D01*
X113439096Y-132638143D01*
X113486715Y-132542905D01*
X113486715Y-132304810D01*
X113439096Y-132209571D01*
X113391477Y-132161952D01*
X113296239Y-132114333D01*
X113105762Y-132114333D01*
X113010524Y-132161952D01*
X112962905Y-132209571D01*
X112915286Y-132304810D01*
X80966762Y-99464476D02*
X81014381Y-99321619D01*
X81014381Y-99083523D01*
X80966762Y-98988285D01*
X80919143Y-98940666D01*
X80823905Y-98893047D01*
X80728667Y-98893047D01*
X80633429Y-98940666D01*
X80585810Y-98988285D01*
X80538190Y-99083523D01*
X80490571Y-99274000D01*
X80442952Y-99369238D01*
X80395333Y-99416857D01*
X80300095Y-99464476D01*
X80204857Y-99464476D01*
X80109619Y-99416857D01*
X80062000Y-99369238D01*
X80014381Y-99274000D01*
X80014381Y-99035904D01*
X80062000Y-98893047D01*
X80062000Y-97940666D02*
X80014381Y-98035904D01*
X80014381Y-98178761D01*
X80062000Y-98321619D01*
X80157238Y-98416857D01*
X80252476Y-98464476D01*
X80442952Y-98512095D01*
X80585810Y-98512095D01*
X80776286Y-98464476D01*
X80871524Y-98416857D01*
X80966762Y-98321619D01*
X81014381Y-98178761D01*
X81014381Y-98083523D01*
X80966762Y-97940666D01*
X80919143Y-97893047D01*
X80585810Y-97893047D01*
X80585810Y-98083523D01*
X80014381Y-97559714D02*
X80014381Y-96940666D01*
X80395333Y-97274000D01*
X80395333Y-97131142D01*
X80442952Y-97035904D01*
X80490571Y-96988285D01*
X80585810Y-96940666D01*
X80823905Y-96940666D01*
X80919143Y-96988285D01*
X80966762Y-97035904D01*
X81014381Y-97131142D01*
X81014381Y-97416857D01*
X80966762Y-97512095D01*
X80919143Y-97559714D01*
X80014381Y-96035904D02*
X80014381Y-96512095D01*
X80490571Y-96559714D01*
X80442952Y-96512095D01*
X80395333Y-96416857D01*
X80395333Y-96178761D01*
X80442952Y-96083523D01*
X80490571Y-96035904D01*
X80585810Y-95988285D01*
X80823905Y-95988285D01*
X80919143Y-96035904D01*
X80966762Y-96083523D01*
X81014381Y-96178761D01*
X81014381Y-96416857D01*
X80966762Y-96512095D01*
X80919143Y-96559714D01*
X80109619Y-95607333D02*
X80062000Y-95559714D01*
X80014381Y-95464476D01*
X80014381Y-95226380D01*
X80062000Y-95131142D01*
X80109619Y-95083523D01*
X80204857Y-95035904D01*
X80300095Y-95035904D01*
X80442952Y-95083523D01*
X81014381Y-95654952D01*
X81014381Y-95035904D01*
X80014381Y-94131142D02*
X80014381Y-94607333D01*
X80490571Y-94654952D01*
X80442952Y-94607333D01*
X80395333Y-94512095D01*
X80395333Y-94273999D01*
X80442952Y-94178761D01*
X80490571Y-94131142D01*
X80585810Y-94083523D01*
X80823905Y-94083523D01*
X80919143Y-94131142D01*
X80966762Y-94178761D01*
X81014381Y-94273999D01*
X81014381Y-94512095D01*
X80966762Y-94607333D01*
X80919143Y-94654952D01*
X69794381Y-97750190D02*
X68794381Y-97750190D01*
X69699143Y-96702571D02*
X69746762Y-96750190D01*
X69794381Y-96893047D01*
X69794381Y-96988285D01*
X69746762Y-97131143D01*
X69651524Y-97226381D01*
X69556286Y-97274000D01*
X69365810Y-97321619D01*
X69222952Y-97321619D01*
X69032476Y-97274000D01*
X68937238Y-97226381D01*
X68842000Y-97131143D01*
X68794381Y-96988285D01*
X68794381Y-96893047D01*
X68842000Y-96750190D01*
X68889619Y-96702571D01*
X69794381Y-95750190D02*
X69794381Y-96321619D01*
X69794381Y-96035905D02*
X68794381Y-96035905D01*
X68937238Y-96131143D01*
X69032476Y-96226381D01*
X69080095Y-96321619D01*
X132734619Y-70696238D02*
X132687000Y-70791476D01*
X132591762Y-70886714D01*
X132448905Y-71029571D01*
X132401286Y-71124810D01*
X132401286Y-71220048D01*
X132639381Y-71172429D02*
X132591762Y-71267667D01*
X132496524Y-71362905D01*
X132306048Y-71410524D01*
X131972714Y-71410524D01*
X131782238Y-71362905D01*
X131687000Y-71267667D01*
X131639381Y-71172429D01*
X131639381Y-70981952D01*
X131687000Y-70886714D01*
X131782238Y-70791476D01*
X131972714Y-70743857D01*
X132306048Y-70743857D01*
X132496524Y-70791476D01*
X132591762Y-70886714D01*
X132639381Y-70981952D01*
X132639381Y-71172429D01*
X132639381Y-69791476D02*
X132639381Y-70362905D01*
X132639381Y-70077191D02*
X131639381Y-70077191D01*
X131782238Y-70172429D01*
X131877476Y-70267667D01*
X131925095Y-70362905D01*
X129917381Y-88423333D02*
X128917381Y-88423333D01*
X129917381Y-87375714D02*
X129441190Y-87709048D01*
X129917381Y-87947143D02*
X128917381Y-87947143D01*
X128917381Y-87566190D01*
X128965000Y-87470952D01*
X129012619Y-87423333D01*
X129107857Y-87375714D01*
X129250714Y-87375714D01*
X129345952Y-87423333D01*
X129393571Y-87470952D01*
X129441190Y-87566190D01*
X129441190Y-87947143D01*
X129393571Y-86613809D02*
X129393571Y-86947143D01*
X129917381Y-86947143D02*
X128917381Y-86947143D01*
X128917381Y-86470952D01*
X129393571Y-85756666D02*
X129441190Y-85613809D01*
X129488810Y-85566190D01*
X129584048Y-85518571D01*
X129726905Y-85518571D01*
X129822143Y-85566190D01*
X129869762Y-85613809D01*
X129917381Y-85709047D01*
X129917381Y-86090000D01*
X128917381Y-86090000D01*
X128917381Y-85756666D01*
X128965000Y-85661428D01*
X129012619Y-85613809D01*
X129107857Y-85566190D01*
X129203095Y-85566190D01*
X129298333Y-85613809D01*
X129345952Y-85661428D01*
X129393571Y-85756666D01*
X129393571Y-86090000D01*
X129250714Y-84661428D02*
X129917381Y-84661428D01*
X128869762Y-84899524D02*
X129584048Y-85137619D01*
X129584048Y-84518571D01*
X128917381Y-84232857D02*
X128917381Y-83613809D01*
X129298333Y-83947143D01*
X129298333Y-83804285D01*
X129345952Y-83709047D01*
X129393571Y-83661428D01*
X129488810Y-83613809D01*
X129726905Y-83613809D01*
X129822143Y-83661428D01*
X129869762Y-83709047D01*
X129917381Y-83804285D01*
X129917381Y-84090000D01*
X129869762Y-84185238D01*
X129822143Y-84232857D01*
X129012619Y-83232857D02*
X128965000Y-83185238D01*
X128917381Y-83090000D01*
X128917381Y-82851904D01*
X128965000Y-82756666D01*
X129012619Y-82709047D01*
X129107857Y-82661428D01*
X129203095Y-82661428D01*
X129345952Y-82709047D01*
X129917381Y-83280476D01*
X129917381Y-82661428D01*
X129917381Y-81709047D02*
X129917381Y-82280476D01*
X129917381Y-81994762D02*
X128917381Y-81994762D01*
X129060238Y-82090000D01*
X129155476Y-82185238D01*
X129203095Y-82280476D01*
X135600619Y-85132238D02*
X135553000Y-85227476D01*
X135457762Y-85322714D01*
X135314905Y-85465571D01*
X135267286Y-85560810D01*
X135267286Y-85656048D01*
X135505381Y-85608429D02*
X135457762Y-85703667D01*
X135362524Y-85798905D01*
X135172048Y-85846524D01*
X134838714Y-85846524D01*
X134648238Y-85798905D01*
X134553000Y-85703667D01*
X134505381Y-85608429D01*
X134505381Y-85417952D01*
X134553000Y-85322714D01*
X134648238Y-85227476D01*
X134838714Y-85179857D01*
X135172048Y-85179857D01*
X135362524Y-85227476D01*
X135457762Y-85322714D01*
X135505381Y-85417952D01*
X135505381Y-85608429D01*
X134600619Y-84798905D02*
X134553000Y-84751286D01*
X134505381Y-84656048D01*
X134505381Y-84417952D01*
X134553000Y-84322714D01*
X134600619Y-84275095D01*
X134695857Y-84227476D01*
X134791095Y-84227476D01*
X134933952Y-84275095D01*
X135505381Y-84846524D01*
X135505381Y-84227476D01*
X129120381Y-102012333D02*
X128120381Y-102012333D01*
X129120381Y-100964714D02*
X128644190Y-101298048D01*
X129120381Y-101536143D02*
X128120381Y-101536143D01*
X128120381Y-101155190D01*
X128168000Y-101059952D01*
X128215619Y-101012333D01*
X128310857Y-100964714D01*
X128453714Y-100964714D01*
X128548952Y-101012333D01*
X128596571Y-101059952D01*
X128644190Y-101155190D01*
X128644190Y-101536143D01*
X128596571Y-100202809D02*
X128596571Y-100536143D01*
X129120381Y-100536143D02*
X128120381Y-100536143D01*
X128120381Y-100059952D01*
X128596571Y-99345666D02*
X128644190Y-99202809D01*
X128691810Y-99155190D01*
X128787048Y-99107571D01*
X128929905Y-99107571D01*
X129025143Y-99155190D01*
X129072762Y-99202809D01*
X129120381Y-99298047D01*
X129120381Y-99679000D01*
X128120381Y-99679000D01*
X128120381Y-99345666D01*
X128168000Y-99250428D01*
X128215619Y-99202809D01*
X128310857Y-99155190D01*
X128406095Y-99155190D01*
X128501333Y-99202809D01*
X128548952Y-99250428D01*
X128596571Y-99345666D01*
X128596571Y-99679000D01*
X128453714Y-98250428D02*
X129120381Y-98250428D01*
X128072762Y-98488524D02*
X128787048Y-98726619D01*
X128787048Y-98107571D01*
X128120381Y-97821857D02*
X128120381Y-97202809D01*
X128501333Y-97536143D01*
X128501333Y-97393285D01*
X128548952Y-97298047D01*
X128596571Y-97250428D01*
X128691810Y-97202809D01*
X128929905Y-97202809D01*
X129025143Y-97250428D01*
X129072762Y-97298047D01*
X129120381Y-97393285D01*
X129120381Y-97679000D01*
X129072762Y-97774238D01*
X129025143Y-97821857D01*
X128215619Y-96821857D02*
X128168000Y-96774238D01*
X128120381Y-96679000D01*
X128120381Y-96440904D01*
X128168000Y-96345666D01*
X128215619Y-96298047D01*
X128310857Y-96250428D01*
X128406095Y-96250428D01*
X128548952Y-96298047D01*
X129120381Y-96869476D01*
X129120381Y-96250428D01*
X129120381Y-95298047D02*
X129120381Y-95869476D01*
X129120381Y-95583762D02*
X128120381Y-95583762D01*
X128263238Y-95679000D01*
X128358476Y-95774238D01*
X128406095Y-95869476D01*
X135600619Y-98774238D02*
X135553000Y-98869476D01*
X135457762Y-98964714D01*
X135314905Y-99107571D01*
X135267286Y-99202810D01*
X135267286Y-99298048D01*
X135505381Y-99250429D02*
X135457762Y-99345667D01*
X135362524Y-99440905D01*
X135172048Y-99488524D01*
X134838714Y-99488524D01*
X134648238Y-99440905D01*
X134553000Y-99345667D01*
X134505381Y-99250429D01*
X134505381Y-99059952D01*
X134553000Y-98964714D01*
X134648238Y-98869476D01*
X134838714Y-98821857D01*
X135172048Y-98821857D01*
X135362524Y-98869476D01*
X135457762Y-98964714D01*
X135505381Y-99059952D01*
X135505381Y-99250429D01*
X134505381Y-98488524D02*
X134505381Y-97869476D01*
X134886333Y-98202810D01*
X134886333Y-98059952D01*
X134933952Y-97964714D01*
X134981571Y-97917095D01*
X135076810Y-97869476D01*
X135314905Y-97869476D01*
X135410143Y-97917095D01*
X135457762Y-97964714D01*
X135505381Y-98059952D01*
X135505381Y-98345667D01*
X135457762Y-98440905D01*
X135410143Y-98488524D01*
X129374381Y-133127333D02*
X128374381Y-133127333D01*
X129374381Y-132079714D02*
X128898190Y-132413048D01*
X129374381Y-132651143D02*
X128374381Y-132651143D01*
X128374381Y-132270190D01*
X128422000Y-132174952D01*
X128469619Y-132127333D01*
X128564857Y-132079714D01*
X128707714Y-132079714D01*
X128802952Y-132127333D01*
X128850571Y-132174952D01*
X128898190Y-132270190D01*
X128898190Y-132651143D01*
X128850571Y-131317809D02*
X128850571Y-131651143D01*
X129374381Y-131651143D02*
X128374381Y-131651143D01*
X128374381Y-131174952D01*
X128850571Y-130460666D02*
X128898190Y-130317809D01*
X128945810Y-130270190D01*
X129041048Y-130222571D01*
X129183905Y-130222571D01*
X129279143Y-130270190D01*
X129326762Y-130317809D01*
X129374381Y-130413047D01*
X129374381Y-130794000D01*
X128374381Y-130794000D01*
X128374381Y-130460666D01*
X128422000Y-130365428D01*
X128469619Y-130317809D01*
X128564857Y-130270190D01*
X128660095Y-130270190D01*
X128755333Y-130317809D01*
X128802952Y-130365428D01*
X128850571Y-130460666D01*
X128850571Y-130794000D01*
X128707714Y-129365428D02*
X129374381Y-129365428D01*
X128326762Y-129603524D02*
X129041048Y-129841619D01*
X129041048Y-129222571D01*
X128374381Y-128936857D02*
X128374381Y-128317809D01*
X128755333Y-128651143D01*
X128755333Y-128508285D01*
X128802952Y-128413047D01*
X128850571Y-128365428D01*
X128945810Y-128317809D01*
X129183905Y-128317809D01*
X129279143Y-128365428D01*
X129326762Y-128413047D01*
X129374381Y-128508285D01*
X129374381Y-128794000D01*
X129326762Y-128889238D01*
X129279143Y-128936857D01*
X128469619Y-127936857D02*
X128422000Y-127889238D01*
X128374381Y-127794000D01*
X128374381Y-127555904D01*
X128422000Y-127460666D01*
X128469619Y-127413047D01*
X128564857Y-127365428D01*
X128660095Y-127365428D01*
X128802952Y-127413047D01*
X129374381Y-127984476D01*
X129374381Y-127365428D01*
X129374381Y-126413047D02*
X129374381Y-126984476D01*
X129374381Y-126698762D02*
X128374381Y-126698762D01*
X128517238Y-126794000D01*
X128612476Y-126889238D01*
X128660095Y-126984476D01*
X135600619Y-129328238D02*
X135553000Y-129423476D01*
X135457762Y-129518714D01*
X135314905Y-129661571D01*
X135267286Y-129756810D01*
X135267286Y-129852048D01*
X135505381Y-129804429D02*
X135457762Y-129899667D01*
X135362524Y-129994905D01*
X135172048Y-130042524D01*
X134838714Y-130042524D01*
X134648238Y-129994905D01*
X134553000Y-129899667D01*
X134505381Y-129804429D01*
X134505381Y-129613952D01*
X134553000Y-129518714D01*
X134648238Y-129423476D01*
X134838714Y-129375857D01*
X135172048Y-129375857D01*
X135362524Y-129423476D01*
X135457762Y-129518714D01*
X135505381Y-129613952D01*
X135505381Y-129804429D01*
X134838714Y-128518714D02*
X135505381Y-128518714D01*
X134457762Y-128756810D02*
X135172048Y-128994905D01*
X135172048Y-128375857D01*
X40985762Y-119017381D02*
X40414333Y-119017381D01*
X40700047Y-119017381D02*
X40700047Y-118017381D01*
X40604809Y-118160238D01*
X40509571Y-118255476D01*
X40414333Y-118303095D01*
X41604809Y-118017381D02*
X41700048Y-118017381D01*
X41795286Y-118065000D01*
X41842905Y-118112619D01*
X41890524Y-118207857D01*
X41938143Y-118398333D01*
X41938143Y-118636429D01*
X41890524Y-118826905D01*
X41842905Y-118922143D01*
X41795286Y-118969762D01*
X41700048Y-119017381D01*
X41604809Y-119017381D01*
X41509571Y-118969762D01*
X41461952Y-118922143D01*
X41414333Y-118826905D01*
X41366714Y-118636429D01*
X41366714Y-118398333D01*
X41414333Y-118207857D01*
X41461952Y-118112619D01*
X41509571Y-118065000D01*
X41604809Y-118017381D01*
X42366714Y-119017381D02*
X42366714Y-118017381D01*
X42461952Y-118636429D02*
X42747667Y-119017381D01*
X42747667Y-118350714D02*
X42366714Y-118731667D01*
X40985762Y-111905381D02*
X40414333Y-111905381D01*
X40700047Y-111905381D02*
X40700047Y-110905381D01*
X40604809Y-111048238D01*
X40509571Y-111143476D01*
X40414333Y-111191095D01*
X41604809Y-110905381D02*
X41700048Y-110905381D01*
X41795286Y-110953000D01*
X41842905Y-111000619D01*
X41890524Y-111095857D01*
X41938143Y-111286333D01*
X41938143Y-111524429D01*
X41890524Y-111714905D01*
X41842905Y-111810143D01*
X41795286Y-111857762D01*
X41700048Y-111905381D01*
X41604809Y-111905381D01*
X41509571Y-111857762D01*
X41461952Y-111810143D01*
X41414333Y-111714905D01*
X41366714Y-111524429D01*
X41366714Y-111286333D01*
X41414333Y-111095857D01*
X41461952Y-111000619D01*
X41509571Y-110953000D01*
X41604809Y-110905381D01*
X42366714Y-111905381D02*
X42366714Y-110905381D01*
X42461952Y-111524429D02*
X42747667Y-111905381D01*
X42747667Y-111238714D02*
X42366714Y-111619667D01*
X44235762Y-90217381D02*
X43664333Y-90217381D01*
X43950047Y-90217381D02*
X43950047Y-89217381D01*
X43854809Y-89360238D01*
X43759571Y-89455476D01*
X43664333Y-89503095D01*
X44854809Y-89217381D02*
X44950048Y-89217381D01*
X45045286Y-89265000D01*
X45092905Y-89312619D01*
X45140524Y-89407857D01*
X45188143Y-89598333D01*
X45188143Y-89836429D01*
X45140524Y-90026905D01*
X45092905Y-90122143D01*
X45045286Y-90169762D01*
X44950048Y-90217381D01*
X44854809Y-90217381D01*
X44759571Y-90169762D01*
X44711952Y-90122143D01*
X44664333Y-90026905D01*
X44616714Y-89836429D01*
X44616714Y-89598333D01*
X44664333Y-89407857D01*
X44711952Y-89312619D01*
X44759571Y-89265000D01*
X44854809Y-89217381D01*
X45616714Y-90217381D02*
X45616714Y-89217381D01*
X45711952Y-89836429D02*
X45997667Y-90217381D01*
X45997667Y-89550714D02*
X45616714Y-89931667D01*
X44235762Y-85899381D02*
X43664333Y-85899381D01*
X43950047Y-85899381D02*
X43950047Y-84899381D01*
X43854809Y-85042238D01*
X43759571Y-85137476D01*
X43664333Y-85185095D01*
X44854809Y-84899381D02*
X44950048Y-84899381D01*
X45045286Y-84947000D01*
X45092905Y-84994619D01*
X45140524Y-85089857D01*
X45188143Y-85280333D01*
X45188143Y-85518429D01*
X45140524Y-85708905D01*
X45092905Y-85804143D01*
X45045286Y-85851762D01*
X44950048Y-85899381D01*
X44854809Y-85899381D01*
X44759571Y-85851762D01*
X44711952Y-85804143D01*
X44664333Y-85708905D01*
X44616714Y-85518429D01*
X44616714Y-85280333D01*
X44664333Y-85089857D01*
X44711952Y-84994619D01*
X44759571Y-84947000D01*
X44854809Y-84899381D01*
X45616714Y-85899381D02*
X45616714Y-84899381D01*
X45711952Y-85518429D02*
X45997667Y-85899381D01*
X45997667Y-85232714D02*
X45616714Y-85613667D01*
X102390333Y-132336619D02*
X102437952Y-132289000D01*
X102533190Y-132241381D01*
X102771286Y-132241381D01*
X102866524Y-132289000D01*
X102914143Y-132336619D01*
X102961762Y-132431857D01*
X102961762Y-132527095D01*
X102914143Y-132669952D01*
X102342714Y-133241381D01*
X102961762Y-133241381D01*
X103580809Y-132241381D02*
X103676048Y-132241381D01*
X103771286Y-132289000D01*
X103818905Y-132336619D01*
X103866524Y-132431857D01*
X103914143Y-132622333D01*
X103914143Y-132860429D01*
X103866524Y-133050905D01*
X103818905Y-133146143D01*
X103771286Y-133193762D01*
X103676048Y-133241381D01*
X103580809Y-133241381D01*
X103485571Y-133193762D01*
X103437952Y-133146143D01*
X103390333Y-133050905D01*
X103342714Y-132860429D01*
X103342714Y-132622333D01*
X103390333Y-132431857D01*
X103437952Y-132336619D01*
X103485571Y-132289000D01*
X103580809Y-132241381D01*
X104342714Y-133241381D02*
X104342714Y-132241381D01*
X104437952Y-132860429D02*
X104723667Y-133241381D01*
X104723667Y-132574714D02*
X104342714Y-132955667D01*
X98929381Y-110016238D02*
X98929381Y-110587667D01*
X98929381Y-110301953D02*
X97929381Y-110301953D01*
X98072238Y-110397191D01*
X98167476Y-110492429D01*
X98215095Y-110587667D01*
X98929381Y-109063857D02*
X98929381Y-109635286D01*
X98929381Y-109349572D02*
X97929381Y-109349572D01*
X98072238Y-109444810D01*
X98167476Y-109540048D01*
X98215095Y-109635286D01*
X98929381Y-108635286D02*
X97929381Y-108635286D01*
X98548429Y-108540048D02*
X98929381Y-108254333D01*
X98262714Y-108254333D02*
X98643667Y-108635286D01*
X82049953Y-80917381D02*
X81478524Y-80917381D01*
X81764238Y-80917381D02*
X81764238Y-79917381D01*
X81669000Y-80060238D01*
X81573762Y-80155476D01*
X81478524Y-80203095D01*
X82478524Y-80917381D02*
X82478524Y-79917381D01*
X82573762Y-80536429D02*
X82859477Y-80917381D01*
X82859477Y-80250714D02*
X82478524Y-80631667D01*
X93690714Y-83425571D02*
X94357381Y-83425571D01*
X93309762Y-83663667D02*
X94024048Y-83901762D01*
X94024048Y-83282714D01*
X94262143Y-82901762D02*
X94309762Y-82854143D01*
X94357381Y-82901762D01*
X94309762Y-82949381D01*
X94262143Y-82901762D01*
X94357381Y-82901762D01*
X93357381Y-82520810D02*
X93357381Y-81854143D01*
X94357381Y-82282715D01*
X94357381Y-81473191D02*
X93357381Y-81473191D01*
X93976429Y-81377953D02*
X94357381Y-81092238D01*
X93690714Y-81092238D02*
X94071667Y-81473191D01*
X112057381Y-92273333D02*
X112057381Y-92844762D01*
X112057381Y-92559048D02*
X111057381Y-92559048D01*
X111200238Y-92654286D01*
X111295476Y-92749524D01*
X111343095Y-92844762D01*
X111962143Y-91844762D02*
X112009762Y-91797143D01*
X112057381Y-91844762D01*
X112009762Y-91892381D01*
X111962143Y-91844762D01*
X112057381Y-91844762D01*
X111057381Y-90892381D02*
X111057381Y-91368572D01*
X111533571Y-91416191D01*
X111485952Y-91368572D01*
X111438333Y-91273334D01*
X111438333Y-91035238D01*
X111485952Y-90940000D01*
X111533571Y-90892381D01*
X111628810Y-90844762D01*
X111866905Y-90844762D01*
X111962143Y-90892381D01*
X112009762Y-90940000D01*
X112057381Y-91035238D01*
X112057381Y-91273334D01*
X112009762Y-91368572D01*
X111962143Y-91416191D01*
X112057381Y-90416191D02*
X111057381Y-90416191D01*
X111676429Y-90320953D02*
X112057381Y-90035238D01*
X111390714Y-90035238D02*
X111771667Y-90416191D01*
X102390333Y-128780619D02*
X102437952Y-128733000D01*
X102533190Y-128685381D01*
X102771286Y-128685381D01*
X102866524Y-128733000D01*
X102914143Y-128780619D01*
X102961762Y-128875857D01*
X102961762Y-128971095D01*
X102914143Y-129113952D01*
X102342714Y-129685381D01*
X102961762Y-129685381D01*
X103580809Y-128685381D02*
X103676048Y-128685381D01*
X103771286Y-128733000D01*
X103818905Y-128780619D01*
X103866524Y-128875857D01*
X103914143Y-129066333D01*
X103914143Y-129304429D01*
X103866524Y-129494905D01*
X103818905Y-129590143D01*
X103771286Y-129637762D01*
X103676048Y-129685381D01*
X103580809Y-129685381D01*
X103485571Y-129637762D01*
X103437952Y-129590143D01*
X103390333Y-129494905D01*
X103342714Y-129304429D01*
X103342714Y-129066333D01*
X103390333Y-128875857D01*
X103437952Y-128780619D01*
X103485571Y-128733000D01*
X103580809Y-128685381D01*
X104342714Y-129685381D02*
X104342714Y-128685381D01*
X104437952Y-129304429D02*
X104723667Y-129685381D01*
X104723667Y-129018714D02*
X104342714Y-129399667D01*
X93154714Y-110349571D02*
X93821381Y-110349571D01*
X92773762Y-110587667D02*
X93488048Y-110825762D01*
X93488048Y-110206714D01*
X93726143Y-109825762D02*
X93773762Y-109778143D01*
X93821381Y-109825762D01*
X93773762Y-109873381D01*
X93726143Y-109825762D01*
X93821381Y-109825762D01*
X92821381Y-109444810D02*
X92821381Y-108825762D01*
X93202333Y-109159096D01*
X93202333Y-109016238D01*
X93249952Y-108921000D01*
X93297571Y-108873381D01*
X93392810Y-108825762D01*
X93630905Y-108825762D01*
X93726143Y-108873381D01*
X93773762Y-108921000D01*
X93821381Y-109016238D01*
X93821381Y-109301953D01*
X93773762Y-109397191D01*
X93726143Y-109444810D01*
X93821381Y-108397191D02*
X92821381Y-108397191D01*
X93440429Y-108301953D02*
X93821381Y-108016238D01*
X93154714Y-108016238D02*
X93535667Y-108397191D01*
X56316714Y-84899381D02*
X56935762Y-84899381D01*
X56602428Y-85280333D01*
X56745286Y-85280333D01*
X56840524Y-85327952D01*
X56888143Y-85375571D01*
X56935762Y-85470810D01*
X56935762Y-85708905D01*
X56888143Y-85804143D01*
X56840524Y-85851762D01*
X56745286Y-85899381D01*
X56459571Y-85899381D01*
X56364333Y-85851762D01*
X56316714Y-85804143D01*
X57792905Y-84899381D02*
X57602428Y-84899381D01*
X57507190Y-84947000D01*
X57459571Y-84994619D01*
X57364333Y-85137476D01*
X57316714Y-85327952D01*
X57316714Y-85708905D01*
X57364333Y-85804143D01*
X57411952Y-85851762D01*
X57507190Y-85899381D01*
X57697667Y-85899381D01*
X57792905Y-85851762D01*
X57840524Y-85804143D01*
X57888143Y-85708905D01*
X57888143Y-85470810D01*
X57840524Y-85375571D01*
X57792905Y-85327952D01*
X57697667Y-85280333D01*
X57507190Y-85280333D01*
X57411952Y-85327952D01*
X57364333Y-85375571D01*
X57316714Y-85470810D01*
X58316714Y-85899381D02*
X58316714Y-84899381D01*
X58411952Y-85518429D02*
X58697667Y-85899381D01*
X58697667Y-85232714D02*
X58316714Y-85613667D01*
X102485572Y-126129381D02*
X101914143Y-126129381D01*
X102199857Y-126129381D02*
X102199857Y-125129381D01*
X102104619Y-125272238D01*
X102009381Y-125367476D01*
X101914143Y-125415095D01*
X103104619Y-125129381D02*
X103199858Y-125129381D01*
X103295096Y-125177000D01*
X103342715Y-125224619D01*
X103390334Y-125319857D01*
X103437953Y-125510333D01*
X103437953Y-125748429D01*
X103390334Y-125938905D01*
X103342715Y-126034143D01*
X103295096Y-126081762D01*
X103199858Y-126129381D01*
X103104619Y-126129381D01*
X103009381Y-126081762D01*
X102961762Y-126034143D01*
X102914143Y-125938905D01*
X102866524Y-125748429D01*
X102866524Y-125510333D01*
X102914143Y-125319857D01*
X102961762Y-125224619D01*
X103009381Y-125177000D01*
X103104619Y-125129381D01*
X104342715Y-125129381D02*
X103866524Y-125129381D01*
X103818905Y-125605571D01*
X103866524Y-125557952D01*
X103961762Y-125510333D01*
X104199858Y-125510333D01*
X104295096Y-125557952D01*
X104342715Y-125605571D01*
X104390334Y-125700810D01*
X104390334Y-125938905D01*
X104342715Y-126034143D01*
X104295096Y-126081762D01*
X104199858Y-126129381D01*
X103961762Y-126129381D01*
X103866524Y-126081762D01*
X103818905Y-126034143D01*
X104818905Y-126129381D02*
X104818905Y-125129381D01*
X104914143Y-125748429D02*
X105199858Y-126129381D01*
X105199858Y-125462714D02*
X104818905Y-125843667D01*
X88261381Y-110730523D02*
X88261381Y-111301952D01*
X88261381Y-111016238D02*
X87261381Y-111016238D01*
X87404238Y-111111476D01*
X87499476Y-111206714D01*
X87547095Y-111301952D01*
X87261381Y-110111476D02*
X87261381Y-110016237D01*
X87309000Y-109920999D01*
X87356619Y-109873380D01*
X87451857Y-109825761D01*
X87642333Y-109778142D01*
X87880429Y-109778142D01*
X88070905Y-109825761D01*
X88166143Y-109873380D01*
X88213762Y-109920999D01*
X88261381Y-110016237D01*
X88261381Y-110111476D01*
X88213762Y-110206714D01*
X88166143Y-110254333D01*
X88070905Y-110301952D01*
X87880429Y-110349571D01*
X87642333Y-110349571D01*
X87451857Y-110301952D01*
X87356619Y-110254333D01*
X87309000Y-110206714D01*
X87261381Y-110111476D01*
X88166143Y-109349571D02*
X88213762Y-109301952D01*
X88261381Y-109349571D01*
X88213762Y-109397190D01*
X88166143Y-109349571D01*
X88261381Y-109349571D01*
X87356619Y-108921000D02*
X87309000Y-108873381D01*
X87261381Y-108778143D01*
X87261381Y-108540047D01*
X87309000Y-108444809D01*
X87356619Y-108397190D01*
X87451857Y-108349571D01*
X87547095Y-108349571D01*
X87689952Y-108397190D01*
X88261381Y-108968619D01*
X88261381Y-108349571D01*
X88261381Y-107921000D02*
X87261381Y-107921000D01*
X87880429Y-107825762D02*
X88261381Y-107540047D01*
X87594714Y-107540047D02*
X87975667Y-107921000D01*
X67071714Y-110111476D02*
X67738381Y-110111476D01*
X66690762Y-110349572D02*
X67405048Y-110587667D01*
X67405048Y-109968619D01*
X66738381Y-109682905D02*
X66738381Y-109016238D01*
X67738381Y-109444810D01*
X67738381Y-108635286D02*
X66738381Y-108635286D01*
X67357429Y-108540048D02*
X67738381Y-108254333D01*
X67071714Y-108254333D02*
X67452667Y-108635286D01*
X69905714Y-84899381D02*
X70524762Y-84899381D01*
X70191428Y-85280333D01*
X70334286Y-85280333D01*
X70429524Y-85327952D01*
X70477143Y-85375571D01*
X70524762Y-85470810D01*
X70524762Y-85708905D01*
X70477143Y-85804143D01*
X70429524Y-85851762D01*
X70334286Y-85899381D01*
X70048571Y-85899381D01*
X69953333Y-85851762D01*
X69905714Y-85804143D01*
X71381905Y-84899381D02*
X71191428Y-84899381D01*
X71096190Y-84947000D01*
X71048571Y-84994619D01*
X70953333Y-85137476D01*
X70905714Y-85327952D01*
X70905714Y-85708905D01*
X70953333Y-85804143D01*
X71000952Y-85851762D01*
X71096190Y-85899381D01*
X71286667Y-85899381D01*
X71381905Y-85851762D01*
X71429524Y-85804143D01*
X71477143Y-85708905D01*
X71477143Y-85470810D01*
X71429524Y-85375571D01*
X71381905Y-85327952D01*
X71286667Y-85280333D01*
X71096190Y-85280333D01*
X71000952Y-85327952D01*
X70953333Y-85375571D01*
X70905714Y-85470810D01*
X71905714Y-85899381D02*
X71905714Y-84899381D01*
X72000952Y-85518429D02*
X72286667Y-85899381D01*
X72286667Y-85232714D02*
X71905714Y-85613667D01*
X73056619Y-110743905D02*
X73009000Y-110696286D01*
X72961381Y-110601048D01*
X72961381Y-110362952D01*
X73009000Y-110267714D01*
X73056619Y-110220095D01*
X73151857Y-110172476D01*
X73247095Y-110172476D01*
X73389952Y-110220095D01*
X73961381Y-110791524D01*
X73961381Y-110172476D01*
X73056619Y-109791524D02*
X73009000Y-109743905D01*
X72961381Y-109648667D01*
X72961381Y-109410571D01*
X73009000Y-109315333D01*
X73056619Y-109267714D01*
X73151857Y-109220095D01*
X73247095Y-109220095D01*
X73389952Y-109267714D01*
X73961381Y-109839143D01*
X73961381Y-109220095D01*
X39668238Y-114556619D02*
X39715857Y-114509000D01*
X39811095Y-114461381D01*
X40049191Y-114461381D01*
X40144429Y-114509000D01*
X40192048Y-114556619D01*
X40239667Y-114651857D01*
X40239667Y-114747095D01*
X40192048Y-114889952D01*
X39620619Y-115461381D01*
X40239667Y-115461381D01*
X40668238Y-115366143D02*
X40715857Y-115413762D01*
X40668238Y-115461381D01*
X40620619Y-115413762D01*
X40668238Y-115366143D01*
X40668238Y-115461381D01*
X41096809Y-114556619D02*
X41144428Y-114509000D01*
X41239666Y-114461381D01*
X41477762Y-114461381D01*
X41573000Y-114509000D01*
X41620619Y-114556619D01*
X41668238Y-114651857D01*
X41668238Y-114747095D01*
X41620619Y-114889952D01*
X41049190Y-115461381D01*
X41668238Y-115461381D01*
X42096809Y-115461381D02*
X42096809Y-114461381D01*
X42192047Y-115080429D02*
X42477762Y-115461381D01*
X42477762Y-114794714D02*
X42096809Y-115175667D01*
X41128619Y-131145762D02*
X41081000Y-131098143D01*
X41033381Y-131002905D01*
X41033381Y-130764809D01*
X41081000Y-130669571D01*
X41128619Y-130621952D01*
X41223857Y-130574333D01*
X41319095Y-130574333D01*
X41461952Y-130621952D01*
X42033381Y-131193381D01*
X42033381Y-130574333D01*
X41938143Y-130145762D02*
X41985762Y-130098143D01*
X42033381Y-130145762D01*
X41985762Y-130193381D01*
X41938143Y-130145762D01*
X42033381Y-130145762D01*
X41128619Y-129717191D02*
X41081000Y-129669572D01*
X41033381Y-129574334D01*
X41033381Y-129336238D01*
X41081000Y-129241000D01*
X41128619Y-129193381D01*
X41223857Y-129145762D01*
X41319095Y-129145762D01*
X41461952Y-129193381D01*
X42033381Y-129764810D01*
X42033381Y-129145762D01*
X42033381Y-128717191D02*
X41033381Y-128717191D01*
X41652429Y-128621953D02*
X42033381Y-128336238D01*
X41366714Y-128336238D02*
X41747667Y-128717191D01*
X56562381Y-128304238D02*
X56562381Y-128875667D01*
X56562381Y-128589953D02*
X55562381Y-128589953D01*
X55705238Y-128685191D01*
X55800476Y-128780429D01*
X55848095Y-128875667D01*
X55562381Y-127685191D02*
X55562381Y-127589952D01*
X55610000Y-127494714D01*
X55657619Y-127447095D01*
X55752857Y-127399476D01*
X55943333Y-127351857D01*
X56181429Y-127351857D01*
X56371905Y-127399476D01*
X56467143Y-127447095D01*
X56514762Y-127494714D01*
X56562381Y-127589952D01*
X56562381Y-127685191D01*
X56514762Y-127780429D01*
X56467143Y-127828048D01*
X56371905Y-127875667D01*
X56181429Y-127923286D01*
X55943333Y-127923286D01*
X55752857Y-127875667D01*
X55657619Y-127828048D01*
X55610000Y-127780429D01*
X55562381Y-127685191D01*
X56562381Y-126923286D02*
X55562381Y-126923286D01*
X56181429Y-126828048D02*
X56562381Y-126542333D01*
X55895714Y-126542333D02*
X56276667Y-126923286D01*
X48605762Y-142385381D02*
X48034333Y-142385381D01*
X48320047Y-142385381D02*
X48320047Y-141385381D01*
X48224809Y-141528238D01*
X48129571Y-141623476D01*
X48034333Y-141671095D01*
X49224809Y-141385381D02*
X49320048Y-141385381D01*
X49415286Y-141433000D01*
X49462905Y-141480619D01*
X49510524Y-141575857D01*
X49558143Y-141766333D01*
X49558143Y-142004429D01*
X49510524Y-142194905D01*
X49462905Y-142290143D01*
X49415286Y-142337762D01*
X49320048Y-142385381D01*
X49224809Y-142385381D01*
X49129571Y-142337762D01*
X49081952Y-142290143D01*
X49034333Y-142194905D01*
X48986714Y-142004429D01*
X48986714Y-141766333D01*
X49034333Y-141575857D01*
X49081952Y-141480619D01*
X49129571Y-141433000D01*
X49224809Y-141385381D01*
X49986714Y-142385381D02*
X49986714Y-141385381D01*
X50081952Y-142004429D02*
X50367667Y-142385381D01*
X50367667Y-141718714D02*
X49986714Y-142099667D01*
X59043381Y-128589952D02*
X59043381Y-129066143D01*
X59519571Y-129113762D01*
X59471952Y-129066143D01*
X59424333Y-128970905D01*
X59424333Y-128732809D01*
X59471952Y-128637571D01*
X59519571Y-128589952D01*
X59614810Y-128542333D01*
X59852905Y-128542333D01*
X59948143Y-128589952D01*
X59995762Y-128637571D01*
X60043381Y-128732809D01*
X60043381Y-128970905D01*
X59995762Y-129066143D01*
X59948143Y-129113762D01*
X59948143Y-128113762D02*
X59995762Y-128066143D01*
X60043381Y-128113762D01*
X59995762Y-128161381D01*
X59948143Y-128113762D01*
X60043381Y-128113762D01*
X60043381Y-127113762D02*
X60043381Y-127685191D01*
X60043381Y-127399477D02*
X59043381Y-127399477D01*
X59186238Y-127494715D01*
X59281476Y-127589953D01*
X59329095Y-127685191D01*
X60043381Y-126685191D02*
X59043381Y-126685191D01*
X59662429Y-126589953D02*
X60043381Y-126304238D01*
X59376714Y-126304238D02*
X59757667Y-126685191D01*
X48553762Y-134286381D02*
X47982333Y-134286381D01*
X48268047Y-134286381D02*
X48268047Y-133286381D01*
X48172809Y-133429238D01*
X48077571Y-133524476D01*
X47982333Y-133572095D01*
X48887095Y-133286381D02*
X49506143Y-133286381D01*
X49172809Y-133667333D01*
X49315667Y-133667333D01*
X49410905Y-133714952D01*
X49458524Y-133762571D01*
X49506143Y-133857810D01*
X49506143Y-134095905D01*
X49458524Y-134191143D01*
X49410905Y-134238762D01*
X49315667Y-134286381D01*
X49029952Y-134286381D01*
X48934714Y-134238762D01*
X48887095Y-134191143D01*
X49934714Y-134286381D02*
X49934714Y-133286381D01*
X50029952Y-133905429D02*
X50315667Y-134286381D01*
X50315667Y-133619714D02*
X49934714Y-134000667D01*
X94293953Y-103777381D02*
X93722524Y-103777381D01*
X94008238Y-103777381D02*
X94008238Y-102777381D01*
X93913000Y-102920238D01*
X93817762Y-103015476D01*
X93722524Y-103063095D01*
X94722524Y-103777381D02*
X94722524Y-102777381D01*
X94817762Y-103396429D02*
X95103477Y-103777381D01*
X95103477Y-103110714D02*
X94722524Y-103491667D01*
X72477429Y-115458714D02*
X72477429Y-116125381D01*
X72239333Y-115077762D02*
X72001238Y-115792048D01*
X72620286Y-115792048D01*
X73001238Y-116030143D02*
X73048857Y-116077762D01*
X73001238Y-116125381D01*
X72953619Y-116077762D01*
X73001238Y-116030143D01*
X73001238Y-116125381D01*
X73382190Y-115125381D02*
X74048857Y-115125381D01*
X73620285Y-116125381D01*
X74429809Y-116125381D02*
X74429809Y-115125381D01*
X74525047Y-115744429D02*
X74810762Y-116125381D01*
X74810762Y-115458714D02*
X74429809Y-115839667D01*
X118999095Y-117918619D02*
X119046714Y-117871000D01*
X119141952Y-117823381D01*
X119380048Y-117823381D01*
X119475286Y-117871000D01*
X119522905Y-117918619D01*
X119570524Y-118013857D01*
X119570524Y-118109095D01*
X119522905Y-118251952D01*
X118951476Y-118823381D01*
X119570524Y-118823381D01*
X119951476Y-117918619D02*
X119999095Y-117871000D01*
X120094333Y-117823381D01*
X120332429Y-117823381D01*
X120427667Y-117871000D01*
X120475286Y-117918619D01*
X120522905Y-118013857D01*
X120522905Y-118109095D01*
X120475286Y-118251952D01*
X119903857Y-118823381D01*
X120522905Y-118823381D01*
X119126095Y-93026619D02*
X119173714Y-92979000D01*
X119268952Y-92931381D01*
X119507048Y-92931381D01*
X119602286Y-92979000D01*
X119649905Y-93026619D01*
X119697524Y-93121857D01*
X119697524Y-93217095D01*
X119649905Y-93359952D01*
X119078476Y-93931381D01*
X119697524Y-93931381D01*
X120078476Y-93026619D02*
X120126095Y-92979000D01*
X120221333Y-92931381D01*
X120459429Y-92931381D01*
X120554667Y-92979000D01*
X120602286Y-93026619D01*
X120649905Y-93121857D01*
X120649905Y-93217095D01*
X120602286Y-93359952D01*
X120030857Y-93931381D01*
X120649905Y-93931381D01*
X119507095Y-79310619D02*
X119554714Y-79263000D01*
X119649952Y-79215381D01*
X119888048Y-79215381D01*
X119983286Y-79263000D01*
X120030905Y-79310619D01*
X120078524Y-79405857D01*
X120078524Y-79501095D01*
X120030905Y-79643952D01*
X119459476Y-80215381D01*
X120078524Y-80215381D01*
X120459476Y-79310619D02*
X120507095Y-79263000D01*
X120602333Y-79215381D01*
X120840429Y-79215381D01*
X120935667Y-79263000D01*
X120983286Y-79310619D01*
X121030905Y-79405857D01*
X121030905Y-79501095D01*
X120983286Y-79643952D01*
X120411857Y-80215381D01*
X121030905Y-80215381D01*
X46553715Y-130701381D02*
X46077524Y-130701381D01*
X46077524Y-129701381D01*
X46887048Y-130701381D02*
X46887048Y-129701381D01*
X47220382Y-130415667D01*
X47553715Y-129701381D01*
X47553715Y-130701381D01*
X47934667Y-129701381D02*
X48553715Y-129701381D01*
X48220381Y-130082333D01*
X48363239Y-130082333D01*
X48458477Y-130129952D01*
X48506096Y-130177571D01*
X48553715Y-130272810D01*
X48553715Y-130510905D01*
X48506096Y-130606143D01*
X48458477Y-130653762D01*
X48363239Y-130701381D01*
X48077524Y-130701381D01*
X47982286Y-130653762D01*
X47934667Y-130606143D01*
X49458477Y-129701381D02*
X48982286Y-129701381D01*
X48934667Y-130177571D01*
X48982286Y-130129952D01*
X49077524Y-130082333D01*
X49315620Y-130082333D01*
X49410858Y-130129952D01*
X49458477Y-130177571D01*
X49506096Y-130272810D01*
X49506096Y-130510905D01*
X49458477Y-130606143D01*
X49410858Y-130653762D01*
X49315620Y-130701381D01*
X49077524Y-130701381D01*
X48982286Y-130653762D01*
X48934667Y-130606143D01*
X50077524Y-130129952D02*
X49982286Y-130082333D01*
X49934667Y-130034714D01*
X49887048Y-129939476D01*
X49887048Y-129891857D01*
X49934667Y-129796619D01*
X49982286Y-129749000D01*
X50077524Y-129701381D01*
X50268001Y-129701381D01*
X50363239Y-129749000D01*
X50410858Y-129796619D01*
X50458477Y-129891857D01*
X50458477Y-129939476D01*
X50410858Y-130034714D01*
X50363239Y-130082333D01*
X50268001Y-130129952D01*
X50077524Y-130129952D01*
X49982286Y-130177571D01*
X49934667Y-130225190D01*
X49887048Y-130320429D01*
X49887048Y-130510905D01*
X49934667Y-130606143D01*
X49982286Y-130653762D01*
X50077524Y-130701381D01*
X50268001Y-130701381D01*
X50363239Y-130653762D01*
X50410858Y-130606143D01*
X50458477Y-130510905D01*
X50458477Y-130320429D01*
X50410858Y-130225190D01*
X50363239Y-130177571D01*
X50268001Y-130129952D01*
X50887048Y-130701381D02*
X50887048Y-129701381D01*
X51458477Y-130701381D01*
X51458477Y-129701381D01*
X47931095Y-128177381D02*
X47931095Y-128986905D01*
X47978714Y-129082143D01*
X48026333Y-129129762D01*
X48121571Y-129177381D01*
X48312048Y-129177381D01*
X48407286Y-129129762D01*
X48454905Y-129082143D01*
X48502524Y-128986905D01*
X48502524Y-128177381D01*
X49502524Y-129177381D02*
X48931095Y-129177381D01*
X49216809Y-129177381D02*
X49216809Y-128177381D01*
X49121571Y-128320238D01*
X49026333Y-128415476D01*
X48931095Y-128463095D01*
X69846715Y-130701381D02*
X69370524Y-130701381D01*
X69370524Y-129701381D01*
X70180048Y-130701381D02*
X70180048Y-129701381D01*
X70513382Y-130415667D01*
X70846715Y-129701381D01*
X70846715Y-130701381D01*
X71227667Y-129701381D02*
X71846715Y-129701381D01*
X71513381Y-130082333D01*
X71656239Y-130082333D01*
X71751477Y-130129952D01*
X71799096Y-130177571D01*
X71846715Y-130272810D01*
X71846715Y-130510905D01*
X71799096Y-130606143D01*
X71751477Y-130653762D01*
X71656239Y-130701381D01*
X71370524Y-130701381D01*
X71275286Y-130653762D01*
X71227667Y-130606143D01*
X72751477Y-129701381D02*
X72275286Y-129701381D01*
X72227667Y-130177571D01*
X72275286Y-130129952D01*
X72370524Y-130082333D01*
X72608620Y-130082333D01*
X72703858Y-130129952D01*
X72751477Y-130177571D01*
X72799096Y-130272810D01*
X72799096Y-130510905D01*
X72751477Y-130606143D01*
X72703858Y-130653762D01*
X72608620Y-130701381D01*
X72370524Y-130701381D01*
X72275286Y-130653762D01*
X72227667Y-130606143D01*
X73370524Y-130129952D02*
X73275286Y-130082333D01*
X73227667Y-130034714D01*
X73180048Y-129939476D01*
X73180048Y-129891857D01*
X73227667Y-129796619D01*
X73275286Y-129749000D01*
X73370524Y-129701381D01*
X73561001Y-129701381D01*
X73656239Y-129749000D01*
X73703858Y-129796619D01*
X73751477Y-129891857D01*
X73751477Y-129939476D01*
X73703858Y-130034714D01*
X73656239Y-130082333D01*
X73561001Y-130129952D01*
X73370524Y-130129952D01*
X73275286Y-130177571D01*
X73227667Y-130225190D01*
X73180048Y-130320429D01*
X73180048Y-130510905D01*
X73227667Y-130606143D01*
X73275286Y-130653762D01*
X73370524Y-130701381D01*
X73561001Y-130701381D01*
X73656239Y-130653762D01*
X73703858Y-130606143D01*
X73751477Y-130510905D01*
X73751477Y-130320429D01*
X73703858Y-130225190D01*
X73656239Y-130177571D01*
X73561001Y-130129952D01*
X74180048Y-130701381D02*
X74180048Y-129701381D01*
X74751477Y-130701381D01*
X74751477Y-129701381D01*
X71120095Y-127849381D02*
X71120095Y-128658905D01*
X71167714Y-128754143D01*
X71215333Y-128801762D01*
X71310571Y-128849381D01*
X71501048Y-128849381D01*
X71596286Y-128801762D01*
X71643905Y-128754143D01*
X71691524Y-128658905D01*
X71691524Y-127849381D01*
X72120095Y-127944619D02*
X72167714Y-127897000D01*
X72262952Y-127849381D01*
X72501048Y-127849381D01*
X72596286Y-127897000D01*
X72643905Y-127944619D01*
X72691524Y-128039857D01*
X72691524Y-128135095D01*
X72643905Y-128277952D01*
X72072476Y-128849381D01*
X72691524Y-128849381D01*
X46299715Y-105809381D02*
X45823524Y-105809381D01*
X45823524Y-104809381D01*
X46633048Y-105809381D02*
X46633048Y-104809381D01*
X46966382Y-105523667D01*
X47299715Y-104809381D01*
X47299715Y-105809381D01*
X47680667Y-104809381D02*
X48299715Y-104809381D01*
X47966381Y-105190333D01*
X48109239Y-105190333D01*
X48204477Y-105237952D01*
X48252096Y-105285571D01*
X48299715Y-105380810D01*
X48299715Y-105618905D01*
X48252096Y-105714143D01*
X48204477Y-105761762D01*
X48109239Y-105809381D01*
X47823524Y-105809381D01*
X47728286Y-105761762D01*
X47680667Y-105714143D01*
X49204477Y-104809381D02*
X48728286Y-104809381D01*
X48680667Y-105285571D01*
X48728286Y-105237952D01*
X48823524Y-105190333D01*
X49061620Y-105190333D01*
X49156858Y-105237952D01*
X49204477Y-105285571D01*
X49252096Y-105380810D01*
X49252096Y-105618905D01*
X49204477Y-105714143D01*
X49156858Y-105761762D01*
X49061620Y-105809381D01*
X48823524Y-105809381D01*
X48728286Y-105761762D01*
X48680667Y-105714143D01*
X49823524Y-105237952D02*
X49728286Y-105190333D01*
X49680667Y-105142714D01*
X49633048Y-105047476D01*
X49633048Y-104999857D01*
X49680667Y-104904619D01*
X49728286Y-104857000D01*
X49823524Y-104809381D01*
X50014001Y-104809381D01*
X50109239Y-104857000D01*
X50156858Y-104904619D01*
X50204477Y-104999857D01*
X50204477Y-105047476D01*
X50156858Y-105142714D01*
X50109239Y-105190333D01*
X50014001Y-105237952D01*
X49823524Y-105237952D01*
X49728286Y-105285571D01*
X49680667Y-105333190D01*
X49633048Y-105428429D01*
X49633048Y-105618905D01*
X49680667Y-105714143D01*
X49728286Y-105761762D01*
X49823524Y-105809381D01*
X50014001Y-105809381D01*
X50109239Y-105761762D01*
X50156858Y-105714143D01*
X50204477Y-105618905D01*
X50204477Y-105428429D01*
X50156858Y-105333190D01*
X50109239Y-105285571D01*
X50014001Y-105237952D01*
X50633048Y-105809381D02*
X50633048Y-104809381D01*
X51204477Y-105809381D01*
X51204477Y-104809381D01*
X47752095Y-101560381D02*
X47752095Y-102369905D01*
X47799714Y-102465143D01*
X47847333Y-102512762D01*
X47942571Y-102560381D01*
X48133048Y-102560381D01*
X48228286Y-102512762D01*
X48275905Y-102465143D01*
X48323524Y-102369905D01*
X48323524Y-101560381D01*
X48704476Y-101560381D02*
X49323524Y-101560381D01*
X48990190Y-101941333D01*
X49133048Y-101941333D01*
X49228286Y-101988952D01*
X49275905Y-102036571D01*
X49323524Y-102131810D01*
X49323524Y-102369905D01*
X49275905Y-102465143D01*
X49228286Y-102512762D01*
X49133048Y-102560381D01*
X48847333Y-102560381D01*
X48752095Y-102512762D01*
X48704476Y-102465143D01*
X111846000Y-151111857D02*
X111846000Y-149911857D01*
X112131715Y-149911857D01*
X112303143Y-149969000D01*
X112417429Y-150083286D01*
X112474572Y-150197571D01*
X112531715Y-150426143D01*
X112531715Y-150597571D01*
X112474572Y-150826143D01*
X112417429Y-150940429D01*
X112303143Y-151054714D01*
X112131715Y-151111857D01*
X111846000Y-151111857D01*
X113560286Y-150311857D02*
X113560286Y-151111857D01*
X113046000Y-150311857D02*
X113046000Y-150940429D01*
X113103143Y-151054714D01*
X113217429Y-151111857D01*
X113388857Y-151111857D01*
X113503143Y-151054714D01*
X113560286Y-150997571D01*
X114131714Y-151111857D02*
X114131714Y-150311857D01*
X114131714Y-150426143D02*
X114188857Y-150369000D01*
X114303143Y-150311857D01*
X114474571Y-150311857D01*
X114588857Y-150369000D01*
X114646000Y-150483286D01*
X114646000Y-151111857D01*
X114646000Y-150483286D02*
X114703143Y-150369000D01*
X114817429Y-150311857D01*
X114988857Y-150311857D01*
X115103143Y-150369000D01*
X115160286Y-150483286D01*
X115160286Y-151111857D01*
X115731714Y-150311857D02*
X115731714Y-151511857D01*
X115731714Y-150369000D02*
X115846000Y-150311857D01*
X116074571Y-150311857D01*
X116188857Y-150369000D01*
X116246000Y-150426143D01*
X116303143Y-150540429D01*
X116303143Y-150883286D01*
X116246000Y-150997571D01*
X116188857Y-151054714D01*
X116074571Y-151111857D01*
X115846000Y-151111857D01*
X115731714Y-151054714D01*
X77476428Y-151111857D02*
X77476428Y-149911857D01*
X78047857Y-151111857D02*
X78047857Y-149911857D01*
X78733572Y-151111857D01*
X78733572Y-149911857D01*
X129120381Y-116744333D02*
X128120381Y-116744333D01*
X129120381Y-115696714D02*
X128644190Y-116030048D01*
X129120381Y-116268143D02*
X128120381Y-116268143D01*
X128120381Y-115887190D01*
X128168000Y-115791952D01*
X128215619Y-115744333D01*
X128310857Y-115696714D01*
X128453714Y-115696714D01*
X128548952Y-115744333D01*
X128596571Y-115791952D01*
X128644190Y-115887190D01*
X128644190Y-116268143D01*
X128596571Y-114934809D02*
X128596571Y-115268143D01*
X129120381Y-115268143D02*
X128120381Y-115268143D01*
X128120381Y-114791952D01*
X128596571Y-114077666D02*
X128644190Y-113934809D01*
X128691810Y-113887190D01*
X128787048Y-113839571D01*
X128929905Y-113839571D01*
X129025143Y-113887190D01*
X129072762Y-113934809D01*
X129120381Y-114030047D01*
X129120381Y-114411000D01*
X128120381Y-114411000D01*
X128120381Y-114077666D01*
X128168000Y-113982428D01*
X128215619Y-113934809D01*
X128310857Y-113887190D01*
X128406095Y-113887190D01*
X128501333Y-113934809D01*
X128548952Y-113982428D01*
X128596571Y-114077666D01*
X128596571Y-114411000D01*
X128453714Y-112982428D02*
X129120381Y-112982428D01*
X128072762Y-113220524D02*
X128787048Y-113458619D01*
X128787048Y-112839571D01*
X128120381Y-112553857D02*
X128120381Y-111934809D01*
X128501333Y-112268143D01*
X128501333Y-112125285D01*
X128548952Y-112030047D01*
X128596571Y-111982428D01*
X128691810Y-111934809D01*
X128929905Y-111934809D01*
X129025143Y-111982428D01*
X129072762Y-112030047D01*
X129120381Y-112125285D01*
X129120381Y-112411000D01*
X129072762Y-112506238D01*
X129025143Y-112553857D01*
X128215619Y-111553857D02*
X128168000Y-111506238D01*
X128120381Y-111411000D01*
X128120381Y-111172904D01*
X128168000Y-111077666D01*
X128215619Y-111030047D01*
X128310857Y-110982428D01*
X128406095Y-110982428D01*
X128548952Y-111030047D01*
X129120381Y-111601476D01*
X129120381Y-110982428D01*
X129120381Y-110030047D02*
X129120381Y-110601476D01*
X129120381Y-110315762D02*
X128120381Y-110315762D01*
X128263238Y-110411000D01*
X128358476Y-110506238D01*
X128406095Y-110601476D01*
X135092619Y-113072238D02*
X135045000Y-113167476D01*
X134949762Y-113262714D01*
X134806905Y-113405571D01*
X134759286Y-113500810D01*
X134759286Y-113596048D01*
X134997381Y-113548429D02*
X134949762Y-113643667D01*
X134854524Y-113738905D01*
X134664048Y-113786524D01*
X134330714Y-113786524D01*
X134140238Y-113738905D01*
X134045000Y-113643667D01*
X133997381Y-113548429D01*
X133997381Y-113357952D01*
X134045000Y-113262714D01*
X134140238Y-113167476D01*
X134330714Y-113119857D01*
X134664048Y-113119857D01*
X134854524Y-113167476D01*
X134949762Y-113262714D01*
X134997381Y-113357952D01*
X134997381Y-113548429D01*
X133997381Y-112215095D02*
X133997381Y-112691286D01*
X134473571Y-112738905D01*
X134425952Y-112691286D01*
X134378333Y-112596048D01*
X134378333Y-112357952D01*
X134425952Y-112262714D01*
X134473571Y-112215095D01*
X134568810Y-112167476D01*
X134806905Y-112167476D01*
X134902143Y-112215095D01*
X134949762Y-112262714D01*
X134997381Y-112357952D01*
X134997381Y-112596048D01*
X134949762Y-112691286D01*
X134902143Y-112738905D01*
X119380095Y-103186619D02*
X119427714Y-103139000D01*
X119522952Y-103091381D01*
X119761048Y-103091381D01*
X119856286Y-103139000D01*
X119903905Y-103186619D01*
X119951524Y-103281857D01*
X119951524Y-103377095D01*
X119903905Y-103519952D01*
X119332476Y-104091381D01*
X119951524Y-104091381D01*
X120332476Y-103186619D02*
X120380095Y-103139000D01*
X120475333Y-103091381D01*
X120713429Y-103091381D01*
X120808667Y-103139000D01*
X120856286Y-103186619D01*
X120903905Y-103281857D01*
X120903905Y-103377095D01*
X120856286Y-103519952D01*
X120284857Y-104091381D01*
X120903905Y-104091381D01*
M02*
