G04 #@! TF.FileFunction,Copper,L1,Top,Signal*
%FSLAX46Y46*%
G04 Gerber Fmt 4.6, Leading zero omitted, Abs format (unit mm)*
G04 Created by KiCad (PCBNEW 4.0.7) date 2018 December 10, Monday 09:19:26*
%MOMM*%
%LPD*%
G01*
G04 APERTURE LIST*
%ADD10C,0.100000*%
%ADD11C,1.800000*%
%ADD12C,2.000000*%
%ADD13R,2.400000X2.400000*%
%ADD14O,2.400000X2.400000*%
%ADD15R,1.800000X1.800000*%
%ADD16R,1.600000X1.600000*%
%ADD17O,1.600000X1.600000*%
%ADD18R,3.500000X2.500000*%
%ADD19O,3.500000X2.500000*%
%ADD20O,1.800000X1.800000*%
%ADD21C,1.600000*%
%ADD22C,2.400000*%
%ADD23O,1.899920X1.501140*%
%ADD24O,1.500000X2.000000*%
%ADD25C,12.000000*%
%ADD26C,0.600000*%
%ADD27C,1.000000*%
%ADD28C,0.600000*%
%ADD29C,10.000000*%
%ADD30C,2.500000*%
%ADD31C,0.254000*%
G04 APERTURE END LIST*
D10*
D11*
X44233000Y-147013000D03*
X47733000Y-147013000D03*
X51233000Y-147013000D03*
D12*
X53775540Y-106179700D03*
X53775540Y-112179700D03*
X84205000Y-87884340D03*
X78205000Y-87884340D03*
X75299240Y-133888820D03*
X81299240Y-133888820D03*
X58507560Y-106078100D03*
X58507560Y-112078100D03*
X72365800Y-105798700D03*
X72365800Y-111798700D03*
X63145600Y-106078100D03*
X63145600Y-112078100D03*
D13*
X105210540Y-67069040D03*
D14*
X117910540Y-67069040D03*
D15*
X78304320Y-69964640D03*
D11*
X78304320Y-67424640D03*
D15*
X88438920Y-69786840D03*
D11*
X88438920Y-67246840D03*
D13*
X84603520Y-97008020D03*
D14*
X74443520Y-97008020D03*
D13*
X84715280Y-92761140D03*
D14*
X74555280Y-92761140D03*
D16*
X53366600Y-100193180D03*
D17*
X71146600Y-92573180D03*
X55906600Y-100193180D03*
X68606600Y-92573180D03*
X58446600Y-100193180D03*
X66066600Y-92573180D03*
X60986600Y-100193180D03*
X63526600Y-92573180D03*
X63526600Y-100193180D03*
X60986600Y-92573180D03*
X66066600Y-100193180D03*
X58446600Y-92573180D03*
X68606600Y-100193180D03*
X55906600Y-92573180D03*
X71146600Y-100193180D03*
X53366600Y-92573180D03*
D18*
X129810440Y-62753580D03*
D19*
X129810440Y-68203580D03*
X129810440Y-73653580D03*
D15*
X132588000Y-82550000D03*
D20*
X132588000Y-85090000D03*
X132588000Y-87630000D03*
D15*
X132817800Y-97256940D03*
D20*
X132817800Y-99796940D03*
X132817800Y-102336940D03*
D15*
X133236900Y-128587840D03*
D20*
X133236900Y-131127840D03*
X133236900Y-133667840D03*
D21*
X43942000Y-118618000D03*
D17*
X54102000Y-118618000D03*
D21*
X40067160Y-111480940D03*
D17*
X50227160Y-111480940D03*
D21*
X49911000Y-92075000D03*
D17*
X39751000Y-92075000D03*
D21*
X49911000Y-87757000D03*
D17*
X39751000Y-87757000D03*
D21*
X87229880Y-129697820D03*
D17*
X77069880Y-129697820D03*
D21*
X84634000Y-112725540D03*
D17*
X84634000Y-102565540D03*
D21*
X75015020Y-74320740D03*
D17*
X75015020Y-84480740D03*
D22*
X87920760Y-73741620D03*
D14*
X87920760Y-86441620D03*
D22*
X98299200Y-110953640D03*
D14*
X98299200Y-63233640D03*
D21*
X87229880Y-126624420D03*
D17*
X77069880Y-126624420D03*
D21*
X81250720Y-112766180D03*
D17*
X81250720Y-102606180D03*
D21*
X62611000Y-87757000D03*
D17*
X52451000Y-87757000D03*
D21*
X87212100Y-123749140D03*
D17*
X77052100Y-123749140D03*
D21*
X78289080Y-112710300D03*
D17*
X78289080Y-102550300D03*
D21*
X66285040Y-103490100D03*
D17*
X66285040Y-113650100D03*
D21*
X75109000Y-87757340D03*
D17*
X64949000Y-87757340D03*
D21*
X69211120Y-103571380D03*
D17*
X69211120Y-113731380D03*
D21*
X40054460Y-114386700D03*
D17*
X50214460Y-114386700D03*
D21*
X41807060Y-123241140D03*
D17*
X41807060Y-133401140D03*
D21*
X56584780Y-122237840D03*
D17*
X56584780Y-132397840D03*
D21*
X54356000Y-139573000D03*
D17*
X44196000Y-139573000D03*
D21*
X59874080Y-122326740D03*
D17*
X59874080Y-132486740D03*
D21*
X54229000Y-136144000D03*
D17*
X44069000Y-136144000D03*
D21*
X75439200Y-102596020D03*
D17*
X75439200Y-112756020D03*
D21*
X68365300Y-118859640D03*
D17*
X58205300Y-118859640D03*
D23*
X56388000Y-149979720D03*
X56388000Y-147480360D03*
X56388000Y-144981000D03*
D24*
X87300500Y-119481940D03*
X85300500Y-119481940D03*
X83300500Y-119481940D03*
X79300500Y-119481940D03*
D16*
X44958000Y-123952000D03*
D17*
X52578000Y-131572000D03*
X44958000Y-126492000D03*
X52578000Y-129032000D03*
X44958000Y-129032000D03*
X52578000Y-126492000D03*
X44958000Y-131572000D03*
X52578000Y-123952000D03*
D16*
X72320080Y-124015840D03*
D17*
X64700080Y-131635840D03*
X69780080Y-124015840D03*
X67240080Y-131635840D03*
X67240080Y-124015840D03*
X69780080Y-131635840D03*
X64700080Y-124015840D03*
X72320080Y-131635840D03*
D16*
X41017120Y-97566820D03*
D17*
X48637120Y-105186820D03*
X41017120Y-100106820D03*
X48637120Y-102646820D03*
X41017120Y-102646820D03*
X48637120Y-100106820D03*
X41017120Y-105186820D03*
X48637120Y-97566820D03*
D25*
X124206000Y-144473000D03*
X103759000Y-144473000D03*
X88265000Y-144473000D03*
X67818000Y-144473000D03*
D15*
X132906700Y-112725540D03*
D20*
X132906700Y-115265540D03*
X132906700Y-117805540D03*
D12*
X72454700Y-120970640D03*
X72454700Y-114970640D03*
D13*
X85451880Y-132994740D03*
D14*
X103993880Y-132994740D03*
D21*
X132589200Y-124079340D03*
D17*
X93473200Y-123952340D03*
D21*
X131745920Y-93167540D03*
D17*
X92629920Y-93040540D03*
D21*
X131634160Y-78471100D03*
D17*
X92518160Y-78344100D03*
D21*
X130958520Y-106451740D03*
D17*
X91842520Y-106324740D03*
D26*
X95108960Y-86530520D03*
X52772240Y-90244000D03*
X51258400Y-93170080D03*
X56790520Y-114749920D03*
X54324180Y-114749920D03*
D27*
X60986600Y-92573180D02*
X59432599Y-91019179D01*
X59432599Y-91019179D02*
X57460601Y-91019179D01*
X57460601Y-91019179D02*
X55906600Y-92573180D01*
X78304320Y-67424640D02*
X79577112Y-67424640D01*
X79577112Y-67424640D02*
X79958321Y-67805849D01*
X79958321Y-67805849D02*
X79958321Y-76381537D01*
X79958321Y-76381537D02*
X65320679Y-91019179D01*
X65320679Y-91019179D02*
X62540601Y-91019179D01*
X62540601Y-91019179D02*
X60986600Y-92573180D01*
X129810440Y-73653580D02*
X91962760Y-73653580D01*
X91962760Y-73653580D02*
X89750021Y-71440841D01*
X83593313Y-71440841D02*
X79577112Y-67424640D01*
X89750021Y-71440841D02*
X83593313Y-71440841D01*
D28*
X84205000Y-87884340D02*
X81824760Y-87884340D01*
X73305600Y-90414180D02*
X71146600Y-92573180D01*
X79294920Y-90414180D02*
X73305600Y-90414180D01*
X81824760Y-87884340D02*
X79294920Y-90414180D01*
X75109000Y-87757340D02*
X78078000Y-87757340D01*
X78078000Y-87757340D02*
X78205000Y-87884340D01*
X67240080Y-131635840D02*
X65886079Y-132989841D01*
X65886079Y-132989841D02*
X64050159Y-132989841D01*
X64050159Y-132989841D02*
X54102000Y-123041682D01*
X54102000Y-123041682D02*
X54102000Y-119749370D01*
X54102000Y-119749370D02*
X54102000Y-118618000D01*
X69780080Y-131635840D02*
X67240080Y-131635840D01*
D27*
X58507560Y-106078100D02*
X55529541Y-109056119D01*
X55529541Y-116382379D02*
X54847921Y-117063999D01*
X55529541Y-109056119D02*
X55529541Y-116382379D01*
X44958000Y-129032000D02*
X47366011Y-126623989D01*
X56584780Y-118800858D02*
X56584780Y-122237840D01*
X47366011Y-126623989D02*
X47366011Y-123054067D01*
X47366011Y-123054067D02*
X53356079Y-117063999D01*
X54847921Y-117063999D02*
X56584780Y-118800858D01*
X53356079Y-117063999D02*
X54847921Y-117063999D01*
X67240080Y-124015840D02*
X65686079Y-125569841D01*
X65686079Y-125569841D02*
X59063341Y-125569841D01*
X59063341Y-125569841D02*
X56721940Y-123228440D01*
X56721940Y-123228440D02*
X56721940Y-122375000D01*
X56721940Y-122375000D02*
X56584780Y-122237840D01*
X58507560Y-106078100D02*
X55076280Y-102646820D01*
X55076280Y-102646820D02*
X48637120Y-102646820D01*
X58507560Y-106078100D02*
X58507560Y-102794140D01*
X58507560Y-102794140D02*
X55906600Y-100193180D01*
X48637120Y-102646820D02*
X48637120Y-100106820D01*
X49911000Y-92075000D02*
X49911000Y-93993018D01*
X49911000Y-93993018D02*
X47083119Y-96820899D01*
X47083119Y-96820899D02*
X47083119Y-98552819D01*
X47083119Y-98552819D02*
X48637120Y-100106820D01*
D29*
X88265000Y-144473000D02*
X103759000Y-144473000D01*
D27*
X87229880Y-126624420D02*
X87229880Y-123766920D01*
X87229880Y-123766920D02*
X87212100Y-123749140D01*
X122462220Y-72265880D02*
X126524520Y-68203580D01*
X126524520Y-68203580D02*
X129810440Y-68203580D01*
X97138420Y-72265880D02*
X122462220Y-72265880D01*
X92119380Y-67246840D02*
X97138420Y-72265880D01*
X88438920Y-67246840D02*
X92119380Y-67246840D01*
D30*
X85451880Y-132994740D02*
X85451880Y-141659880D01*
X85451880Y-141659880D02*
X88265000Y-144473000D01*
X92405102Y-128430360D02*
X92405102Y-129741518D01*
X92405102Y-129741518D02*
X89151880Y-132994740D01*
X89151880Y-132994740D02*
X85451880Y-132994740D01*
X98299200Y-110953640D02*
X98299200Y-122536262D01*
X98299200Y-122536262D02*
X92405102Y-128430360D01*
D27*
X87229880Y-129697820D02*
X87229880Y-131216740D01*
X87229880Y-131216740D02*
X85451880Y-132994740D01*
X87229880Y-126624420D02*
X87229880Y-129697820D01*
X87212100Y-126606640D02*
X87229880Y-126624420D01*
X95136900Y-86558460D02*
X98294120Y-86558460D01*
X95108960Y-86530520D02*
X95136900Y-86558460D01*
D30*
X127517000Y-150697000D02*
X128517000Y-149697000D01*
X125517000Y-150697000D02*
X127517000Y-150697000D01*
X122517000Y-150697000D02*
X125517000Y-150697000D01*
X121017000Y-149197000D02*
X122517000Y-150697000D01*
X124206000Y-146008000D02*
X121017000Y-149197000D01*
X124206000Y-144473000D02*
X124206000Y-146008000D01*
D29*
X124206000Y-144473000D02*
X117293000Y-144473000D01*
X124206000Y-144473000D02*
X131293000Y-144473000D01*
X124206000Y-144473000D02*
X124206000Y-136886000D01*
D27*
X132124000Y-85090000D02*
X131517000Y-85697000D01*
X131517000Y-85697000D02*
X131517000Y-86161000D01*
X132588000Y-85090000D02*
X132124000Y-85090000D01*
X131017000Y-84697000D02*
X131017000Y-85197000D01*
X132517000Y-84697000D02*
X131017000Y-84697000D01*
X132588000Y-85090000D02*
X132588000Y-84768000D01*
X132588000Y-84768000D02*
X132517000Y-84697000D01*
X132588000Y-85090000D02*
X131624000Y-85090000D01*
X132588000Y-85090000D02*
X131517000Y-86161000D01*
X132017000Y-100697000D02*
X131517000Y-100197000D01*
X132817800Y-99896200D02*
X132017000Y-100697000D01*
X132817800Y-99796940D02*
X132817800Y-99896200D01*
X132017000Y-99697000D02*
X131517000Y-99697000D01*
X132017000Y-99197000D02*
X132017000Y-99697000D01*
X132230941Y-98983059D02*
X132017000Y-99197000D01*
X132230941Y-98910941D02*
X132230941Y-98983059D01*
X132817800Y-99796940D02*
X132817800Y-99497800D01*
X132817800Y-99497800D02*
X132230941Y-98910941D01*
X132906700Y-115265540D02*
X132906700Y-114586700D01*
X132906700Y-114586700D02*
X132699541Y-114379541D01*
X132906700Y-115265540D02*
X132006701Y-116165539D01*
X132006701Y-116165539D02*
X132006701Y-116186701D01*
X132585540Y-115265540D02*
X132017000Y-114697000D01*
X132906700Y-115265540D02*
X132585540Y-115265540D01*
X132448460Y-115265540D02*
X132017000Y-115697000D01*
X132906700Y-115265540D02*
X132448460Y-115265540D01*
X133017000Y-130697000D02*
X132017000Y-130697000D01*
X133236900Y-131127840D02*
X133236900Y-130916900D01*
X133236900Y-130916900D02*
X133017000Y-130697000D01*
X132759818Y-131697000D02*
X131517000Y-131697000D01*
X133236900Y-131127840D02*
X133236900Y-131219918D01*
X133236900Y-131219918D02*
X132759818Y-131697000D01*
D30*
X124206000Y-144473000D02*
X124206000Y-142886000D01*
D28*
X72365800Y-105798700D02*
X72365800Y-101412380D01*
X72365800Y-101412380D02*
X71146600Y-100193180D01*
X63145600Y-106078100D02*
X64559813Y-106078100D01*
X64559813Y-106078100D02*
X69211120Y-110729407D01*
X69211120Y-110729407D02*
X69211120Y-113731380D01*
X63145600Y-106078100D02*
X63145600Y-100574180D01*
X63145600Y-100574180D02*
X63526600Y-100193180D01*
D30*
X129810440Y-62753580D02*
X128662360Y-62753580D01*
X128662360Y-62753580D02*
X121349700Y-70066240D01*
X108207740Y-70066240D02*
X105210540Y-67069040D01*
X121349700Y-70066240D02*
X108207740Y-70066240D01*
X105210540Y-67069040D02*
X102134600Y-67069040D01*
X102134600Y-67069040D02*
X98299200Y-63233640D01*
X129330380Y-63233640D02*
X129810440Y-62753580D01*
D27*
X75015020Y-74320740D02*
X75015020Y-73253940D01*
X75015020Y-73253940D02*
X78304320Y-69964640D01*
X92629920Y-93040540D02*
X92629920Y-78455860D01*
X80114980Y-99296560D02*
X78738660Y-99296560D01*
X78738660Y-99296560D02*
X75439200Y-102596020D01*
X84603520Y-97008020D02*
X82403520Y-97008020D01*
X82403520Y-97008020D02*
X80114980Y-99296560D01*
X84715280Y-92761140D02*
X84715280Y-96896260D01*
X84715280Y-96896260D02*
X84603520Y-97008020D01*
X91842520Y-106324740D02*
X91842520Y-122321660D01*
X91842520Y-122321660D02*
X93473200Y-123952340D01*
X92629920Y-93040540D02*
X92629920Y-105537340D01*
X92629920Y-105537340D02*
X91842520Y-106324740D01*
X92629920Y-78455860D02*
X92518160Y-78344100D01*
X84715280Y-92761140D02*
X92350520Y-92761140D01*
X92350520Y-92761140D02*
X92629920Y-93040540D01*
D28*
X74443520Y-97008020D02*
X62881440Y-97008020D01*
X62881440Y-97008020D02*
X58446600Y-92573180D01*
X52772240Y-90244000D02*
X55259240Y-87757000D01*
X55259240Y-87757000D02*
X62611000Y-87757000D01*
X53366600Y-100193180D02*
X53366600Y-98793180D01*
X53366600Y-98793180D02*
X51258400Y-96684980D01*
X51258400Y-96684980D02*
X51258400Y-93170080D01*
X62611000Y-87757000D02*
X64948660Y-87757000D01*
X64948660Y-87757000D02*
X64949000Y-87757340D01*
X66285040Y-103490100D02*
X66285040Y-100411620D01*
X66285040Y-100411620D02*
X66066600Y-100193180D01*
X69211120Y-103571380D02*
X69211120Y-100797700D01*
X69211120Y-100797700D02*
X68606600Y-100193180D01*
X53366600Y-92573180D02*
X51514419Y-90720999D01*
X49261079Y-90720999D02*
X45746600Y-94235478D01*
X51514419Y-90720999D02*
X49261079Y-90720999D01*
X45746600Y-102296300D02*
X48637120Y-105186820D01*
X45746600Y-94235478D02*
X45746600Y-102296300D01*
X41807060Y-123241140D02*
X44247140Y-123241140D01*
X44247140Y-123241140D02*
X44958000Y-123952000D01*
X39472800Y-142252800D02*
X39472800Y-125575400D01*
X39472800Y-125575400D02*
X41807060Y-123241140D01*
X44233000Y-147013000D02*
X39472800Y-142252800D01*
X47733000Y-147013000D02*
X52912060Y-152192060D01*
X52912060Y-152192060D02*
X56220004Y-152192060D01*
X56220004Y-152192060D02*
X59874080Y-148537984D01*
X59874080Y-148537984D02*
X59874080Y-132486740D01*
X50130640Y-144637848D02*
X50130640Y-128939360D01*
X50130640Y-128939360D02*
X52578000Y-126492000D01*
X51233000Y-147013000D02*
X51233000Y-145740208D01*
X51233000Y-145740208D02*
X50130640Y-144637848D01*
X56388000Y-147480360D02*
X56388000Y-149979720D01*
X51233000Y-147013000D02*
X55920640Y-147013000D01*
X55920640Y-147013000D02*
X56388000Y-147480360D01*
D27*
X131634160Y-78471100D02*
X131634160Y-81596160D01*
X131634160Y-81596160D02*
X132588000Y-82550000D01*
X131745920Y-93167540D02*
X131745920Y-96185060D01*
X131745920Y-96185060D02*
X132817800Y-97256940D01*
X132589200Y-124079340D02*
X132589200Y-127940140D01*
X132589200Y-127940140D02*
X133236900Y-128587840D01*
D28*
X41017120Y-100106820D02*
X43942000Y-103031700D01*
X43942000Y-103031700D02*
X43942000Y-118618000D01*
X39751000Y-87757000D02*
X42551889Y-90557889D01*
X42551889Y-90557889D02*
X42551889Y-92776989D01*
X42551889Y-92776989D02*
X39663119Y-95665759D01*
X39663119Y-95665759D02*
X39663119Y-98752819D01*
X39663119Y-98752819D02*
X41017120Y-100106820D01*
X40067160Y-111480940D02*
X40067160Y-110349570D01*
X39663119Y-109945529D02*
X39663119Y-104000821D01*
X39663119Y-104000821D02*
X41017120Y-102646820D01*
X40067160Y-110349570D02*
X39663119Y-109945529D01*
X39751000Y-92075000D02*
X38809109Y-93016891D01*
X38809109Y-93016891D02*
X38809109Y-100438809D01*
X38809109Y-100438809D02*
X41017120Y-102646820D01*
X56790520Y-114749920D02*
X64255580Y-114749920D01*
X64255580Y-114749920D02*
X68365300Y-118859640D01*
X50227160Y-111480940D02*
X53496140Y-114749920D01*
X53496140Y-114749920D02*
X54324180Y-114749920D01*
X72454700Y-120970640D02*
X70476300Y-120970640D01*
X70476300Y-120970640D02*
X68365300Y-118859640D01*
X72320080Y-124015840D02*
X72320080Y-121105260D01*
X72320080Y-121105260D02*
X72454700Y-120970640D01*
X49911000Y-87757000D02*
X48779630Y-87757000D01*
X48779630Y-87757000D02*
X41017120Y-95519510D01*
X41017120Y-95519510D02*
X41017120Y-97566820D01*
X49911000Y-87757000D02*
X52451000Y-87757000D01*
X87300500Y-119481940D02*
X87300500Y-121081940D01*
X87300500Y-121081940D02*
X78684620Y-129697820D01*
X78684620Y-129697820D02*
X77069880Y-129697820D01*
X84634000Y-112725540D02*
X84634000Y-113856910D01*
X84634000Y-113856910D02*
X87300500Y-116523410D01*
X87300500Y-116523410D02*
X87300500Y-119481940D01*
X85300500Y-119481940D02*
X85300500Y-121081940D01*
X85300500Y-121081940D02*
X79758020Y-126624420D01*
X79758020Y-126624420D02*
X77069880Y-126624420D01*
X81250720Y-112766180D02*
X85300500Y-116815960D01*
X85300500Y-116815960D02*
X85300500Y-119481940D01*
X77052100Y-123749140D02*
X77052100Y-121730340D01*
X77052100Y-121730340D02*
X79300500Y-119481940D01*
X78289080Y-112710300D02*
X78289080Y-118470520D01*
X78289080Y-118470520D02*
X79300500Y-119481940D01*
X44958000Y-126492000D02*
X46312001Y-125137999D01*
X46312001Y-125137999D02*
X46312001Y-122708799D01*
X46312001Y-122708799D02*
X43575203Y-119972001D01*
X43575203Y-119972001D02*
X43292079Y-119972001D01*
X43292079Y-119972001D02*
X40054460Y-116734382D01*
X40054460Y-116734382D02*
X40054460Y-114386700D01*
X41807060Y-133401140D02*
X41807060Y-129642940D01*
X41807060Y-129642940D02*
X44958000Y-126492000D01*
X56584780Y-132397840D02*
X53403840Y-132397840D01*
X53403840Y-132397840D02*
X52578000Y-131572000D01*
X55185479Y-138773001D02*
X56584780Y-137373700D01*
X56584780Y-137373700D02*
X56584780Y-132397840D01*
X54356000Y-139573000D02*
X55155999Y-138773001D01*
X55155999Y-138773001D02*
X55185479Y-138773001D01*
X69780080Y-124015840D02*
X64623880Y-118859640D01*
X64623880Y-118859640D02*
X58205300Y-118859640D01*
X58205300Y-118859640D02*
X58205300Y-120657960D01*
X58205300Y-120657960D02*
X59874080Y-122326740D01*
X51113620Y-133028620D02*
X51113620Y-130496380D01*
X51113620Y-130496380D02*
X52578000Y-129032000D01*
X54229000Y-136144000D02*
X51113620Y-133028620D01*
X52180420Y-142323380D02*
X52180420Y-138192580D01*
X52180420Y-138192580D02*
X54229000Y-136144000D01*
X56388000Y-144981000D02*
X54838040Y-144981000D01*
X54838040Y-144981000D02*
X52180420Y-142323380D01*
D27*
X130958520Y-106451740D02*
X130958520Y-110777360D01*
X130958520Y-110777360D02*
X132906700Y-112725540D01*
D28*
X70615740Y-125720180D02*
X73043980Y-125720180D01*
X73043980Y-125720180D02*
X75970198Y-125720180D01*
X75299240Y-133888820D02*
X75299240Y-127975440D01*
X75299240Y-127975440D02*
X73043980Y-125720180D01*
X64700080Y-131635840D02*
X70615740Y-125720180D01*
X77929299Y-125103141D02*
X83300500Y-119731940D01*
X75970198Y-125720180D02*
X76587237Y-125103141D01*
X76587237Y-125103141D02*
X77929299Y-125103141D01*
X83300500Y-119731940D02*
X83300500Y-119481940D01*
X64920800Y-131856560D02*
X64700080Y-131635840D01*
X74555280Y-92761140D02*
X73355281Y-93961139D01*
X73355281Y-93961139D02*
X67454559Y-93961139D01*
X67454559Y-93961139D02*
X66066600Y-92573180D01*
D31*
G36*
X131096954Y-84725258D02*
X131217003Y-84963000D01*
X132461000Y-84963000D01*
X132461000Y-84943000D01*
X132715000Y-84943000D01*
X132715000Y-84963000D01*
X133958997Y-84963000D01*
X134079046Y-84725258D01*
X133891972Y-84324000D01*
X136390000Y-84324000D01*
X136390000Y-152570000D01*
X111144000Y-152570000D01*
X111144000Y-149233254D01*
X119625351Y-149233254D01*
X120333086Y-150019674D01*
X122750514Y-151079558D01*
X125389526Y-151133654D01*
X127848358Y-150173726D01*
X128078914Y-150019674D01*
X128786649Y-149233254D01*
X124206000Y-144652605D01*
X119625351Y-149233254D01*
X111144000Y-149233254D01*
X111144000Y-145656526D01*
X117545346Y-145656526D01*
X118505274Y-148115358D01*
X118659326Y-148345914D01*
X119445746Y-149053649D01*
X124026395Y-144473000D01*
X124385605Y-144473000D01*
X128966254Y-149053649D01*
X129752674Y-148345914D01*
X130812558Y-145928486D01*
X130866654Y-143289474D01*
X129906726Y-140830642D01*
X129752674Y-140600086D01*
X128966254Y-139892351D01*
X124385605Y-144473000D01*
X124026395Y-144473000D01*
X119445746Y-139892351D01*
X118659326Y-140600086D01*
X117599442Y-143017514D01*
X117545346Y-145656526D01*
X111144000Y-145656526D01*
X111144000Y-139712746D01*
X119625351Y-139712746D01*
X124206000Y-144293395D01*
X128786649Y-139712746D01*
X128078914Y-138926326D01*
X125661486Y-137866442D01*
X123022474Y-137812346D01*
X120563642Y-138772274D01*
X120333086Y-138926326D01*
X119625351Y-139712746D01*
X111144000Y-139712746D01*
X111144000Y-137197000D01*
X111133994Y-137147590D01*
X111105553Y-137105965D01*
X111063159Y-137078685D01*
X111017000Y-137070000D01*
X97144000Y-137070000D01*
X97144000Y-133406545D01*
X102205685Y-133406545D01*
X102438238Y-133967998D01*
X102929104Y-134489232D01*
X103582073Y-134782943D01*
X103866880Y-134666598D01*
X103866880Y-133121740D01*
X104120880Y-133121740D01*
X104120880Y-134666598D01*
X104405687Y-134782943D01*
X105058656Y-134489232D01*
X105549522Y-133967998D01*
X105686302Y-133637768D01*
X131701900Y-133637768D01*
X131701900Y-133697912D01*
X131818745Y-134285331D01*
X132151491Y-134783321D01*
X132649481Y-135116067D01*
X133236900Y-135232912D01*
X133824319Y-135116067D01*
X134322309Y-134783321D01*
X134655055Y-134285331D01*
X134771900Y-133697912D01*
X134771900Y-133637768D01*
X134655055Y-133050349D01*
X134322309Y-132552359D01*
X134084318Y-132393339D01*
X134474866Y-132035416D01*
X134727946Y-131492582D01*
X134607897Y-131254840D01*
X133363900Y-131254840D01*
X133363900Y-131274840D01*
X133109900Y-131274840D01*
X133109900Y-131254840D01*
X131865903Y-131254840D01*
X131745854Y-131492582D01*
X131998934Y-132035416D01*
X132389482Y-132393339D01*
X132151491Y-132552359D01*
X131818745Y-133050349D01*
X131701900Y-133637768D01*
X105686302Y-133637768D01*
X105782075Y-133406545D01*
X105665312Y-133121740D01*
X104120880Y-133121740D01*
X103866880Y-133121740D01*
X102322448Y-133121740D01*
X102205685Y-133406545D01*
X97144000Y-133406545D01*
X97144000Y-132582935D01*
X102205685Y-132582935D01*
X102322448Y-132867740D01*
X103866880Y-132867740D01*
X103866880Y-131322882D01*
X104120880Y-131322882D01*
X104120880Y-132867740D01*
X105665312Y-132867740D01*
X105782075Y-132582935D01*
X105549522Y-132021482D01*
X105058656Y-131500248D01*
X104405687Y-131206537D01*
X104120880Y-131322882D01*
X103866880Y-131322882D01*
X103582073Y-131206537D01*
X102929104Y-131500248D01*
X102438238Y-132021482D01*
X102205685Y-132582935D01*
X97144000Y-132582935D01*
X97144000Y-126357255D01*
X99137728Y-124363527D01*
X131153952Y-124363527D01*
X131371957Y-124891140D01*
X131454200Y-124973527D01*
X131454200Y-127940140D01*
X131540597Y-128374486D01*
X131577931Y-128430360D01*
X131689460Y-128597275D01*
X131689460Y-129487840D01*
X131733738Y-129723157D01*
X131872810Y-129939281D01*
X132085010Y-130084271D01*
X132136046Y-130094606D01*
X131998934Y-130220264D01*
X131745854Y-130763098D01*
X131865903Y-131000840D01*
X133109900Y-131000840D01*
X133109900Y-130980840D01*
X133363900Y-130980840D01*
X133363900Y-131000840D01*
X134607897Y-131000840D01*
X134727946Y-130763098D01*
X134474866Y-130220264D01*
X134340362Y-130096996D01*
X134372217Y-130091002D01*
X134588341Y-129951930D01*
X134733331Y-129739730D01*
X134784340Y-129487840D01*
X134784340Y-127687840D01*
X134740062Y-127452523D01*
X134600990Y-127236399D01*
X134388790Y-127091409D01*
X134136900Y-127040400D01*
X133724200Y-127040400D01*
X133724200Y-124973946D01*
X133805024Y-124893263D01*
X134023950Y-124366031D01*
X134024448Y-123795153D01*
X133806443Y-123267540D01*
X133403123Y-122863516D01*
X132875891Y-122644590D01*
X132305013Y-122644092D01*
X131777400Y-122862097D01*
X131373376Y-123265417D01*
X131154450Y-123792649D01*
X131153952Y-124363527D01*
X99137728Y-124363527D01*
X99632096Y-123869159D01*
X100040713Y-123257621D01*
X100119387Y-122862097D01*
X100184200Y-122536262D01*
X100184200Y-117775468D01*
X131371700Y-117775468D01*
X131371700Y-117835612D01*
X131488545Y-118423031D01*
X131821291Y-118921021D01*
X132319281Y-119253767D01*
X132906700Y-119370612D01*
X133494119Y-119253767D01*
X133992109Y-118921021D01*
X134324855Y-118423031D01*
X134441700Y-117835612D01*
X134441700Y-117775468D01*
X134324855Y-117188049D01*
X133992109Y-116690059D01*
X133754118Y-116531039D01*
X134144666Y-116173116D01*
X134397746Y-115630282D01*
X134277697Y-115392540D01*
X133033700Y-115392540D01*
X133033700Y-115412540D01*
X132779700Y-115412540D01*
X132779700Y-115392540D01*
X131535703Y-115392540D01*
X131415654Y-115630282D01*
X131668734Y-116173116D01*
X132059282Y-116531039D01*
X131821291Y-116690059D01*
X131488545Y-117188049D01*
X131371700Y-117775468D01*
X100184200Y-117775468D01*
X100184200Y-110953640D01*
X100134419Y-110703375D01*
X100134518Y-110590237D01*
X100090932Y-110484751D01*
X100040713Y-110232282D01*
X99898951Y-110020120D01*
X99855745Y-109915554D01*
X99775108Y-109834776D01*
X99632096Y-109620744D01*
X99419932Y-109478980D01*
X99340001Y-109398910D01*
X99234593Y-109355141D01*
X99020558Y-109212127D01*
X98770293Y-109162346D01*
X98665805Y-109118959D01*
X98551670Y-109118859D01*
X98299200Y-109068640D01*
X98048935Y-109118421D01*
X97935797Y-109118322D01*
X97830311Y-109161908D01*
X97577842Y-109212127D01*
X97365680Y-109353889D01*
X97261114Y-109397095D01*
X97180336Y-109477732D01*
X97144000Y-109502011D01*
X97144000Y-106735927D01*
X129523272Y-106735927D01*
X129741277Y-107263540D01*
X129823520Y-107345927D01*
X129823520Y-110777360D01*
X129909917Y-111211706D01*
X129980301Y-111317043D01*
X130155954Y-111579926D01*
X131359260Y-112783232D01*
X131359260Y-113625540D01*
X131403538Y-113860857D01*
X131542610Y-114076981D01*
X131754810Y-114221971D01*
X131805846Y-114232306D01*
X131668734Y-114357964D01*
X131415654Y-114900798D01*
X131535703Y-115138540D01*
X132779700Y-115138540D01*
X132779700Y-115118540D01*
X133033700Y-115118540D01*
X133033700Y-115138540D01*
X134277697Y-115138540D01*
X134397746Y-114900798D01*
X134144666Y-114357964D01*
X134010162Y-114234696D01*
X134042017Y-114228702D01*
X134258141Y-114089630D01*
X134403131Y-113877430D01*
X134454140Y-113625540D01*
X134454140Y-111825540D01*
X134409862Y-111590223D01*
X134270790Y-111374099D01*
X134058590Y-111229109D01*
X133806700Y-111178100D01*
X132964392Y-111178100D01*
X132093520Y-110307228D01*
X132093520Y-107346346D01*
X132174344Y-107265663D01*
X132393270Y-106738431D01*
X132393768Y-106167553D01*
X132175763Y-105639940D01*
X131772443Y-105235916D01*
X131245211Y-105016990D01*
X130674333Y-105016492D01*
X130146720Y-105234497D01*
X129742696Y-105637817D01*
X129523770Y-106165049D01*
X129523272Y-106735927D01*
X97144000Y-106735927D01*
X97144000Y-102306868D01*
X131282800Y-102306868D01*
X131282800Y-102367012D01*
X131399645Y-102954431D01*
X131732391Y-103452421D01*
X132230381Y-103785167D01*
X132817800Y-103902012D01*
X133405219Y-103785167D01*
X133903209Y-103452421D01*
X134235955Y-102954431D01*
X134352800Y-102367012D01*
X134352800Y-102306868D01*
X134235955Y-101719449D01*
X133903209Y-101221459D01*
X133665218Y-101062439D01*
X134055766Y-100704516D01*
X134308846Y-100161682D01*
X134188797Y-99923940D01*
X132944800Y-99923940D01*
X132944800Y-99943940D01*
X132690800Y-99943940D01*
X132690800Y-99923940D01*
X131446803Y-99923940D01*
X131326754Y-100161682D01*
X131579834Y-100704516D01*
X131970382Y-101062439D01*
X131732391Y-101221459D01*
X131399645Y-101719449D01*
X131282800Y-102306868D01*
X97144000Y-102306868D01*
X97144000Y-93451727D01*
X130310672Y-93451727D01*
X130528677Y-93979340D01*
X130610920Y-94061727D01*
X130610920Y-96185060D01*
X130697317Y-96619406D01*
X130833084Y-96822595D01*
X130943354Y-96987626D01*
X131270360Y-97314632D01*
X131270360Y-98156940D01*
X131314638Y-98392257D01*
X131453710Y-98608381D01*
X131665910Y-98753371D01*
X131716946Y-98763706D01*
X131579834Y-98889364D01*
X131326754Y-99432198D01*
X131446803Y-99669940D01*
X132690800Y-99669940D01*
X132690800Y-99649940D01*
X132944800Y-99649940D01*
X132944800Y-99669940D01*
X134188797Y-99669940D01*
X134308846Y-99432198D01*
X134055766Y-98889364D01*
X133921262Y-98766096D01*
X133953117Y-98760102D01*
X134169241Y-98621030D01*
X134314231Y-98408830D01*
X134365240Y-98156940D01*
X134365240Y-96356940D01*
X134320962Y-96121623D01*
X134181890Y-95905499D01*
X133969690Y-95760509D01*
X133717800Y-95709500D01*
X132880920Y-95709500D01*
X132880920Y-94062146D01*
X132961744Y-93981463D01*
X133180670Y-93454231D01*
X133181168Y-92883353D01*
X132963163Y-92355740D01*
X132559843Y-91951716D01*
X132032611Y-91732790D01*
X131461733Y-91732292D01*
X130934120Y-91950297D01*
X130530096Y-92353617D01*
X130311170Y-92880849D01*
X130310672Y-93451727D01*
X97144000Y-93451727D01*
X97144000Y-87599928D01*
X131053000Y-87599928D01*
X131053000Y-87660072D01*
X131169845Y-88247491D01*
X131502591Y-88745481D01*
X132000581Y-89078227D01*
X132588000Y-89195072D01*
X133175419Y-89078227D01*
X133673409Y-88745481D01*
X134006155Y-88247491D01*
X134123000Y-87660072D01*
X134123000Y-87599928D01*
X134006155Y-87012509D01*
X133673409Y-86514519D01*
X133435418Y-86355499D01*
X133825966Y-85997576D01*
X134079046Y-85454742D01*
X133958997Y-85217000D01*
X132715000Y-85217000D01*
X132715000Y-85237000D01*
X132461000Y-85237000D01*
X132461000Y-85217000D01*
X131217003Y-85217000D01*
X131096954Y-85454742D01*
X131350034Y-85997576D01*
X131740582Y-86355499D01*
X131502591Y-86514519D01*
X131169845Y-87012509D01*
X131053000Y-87599928D01*
X97144000Y-87599928D01*
X97144000Y-84324000D01*
X131284028Y-84324000D01*
X131096954Y-84725258D01*
X131096954Y-84725258D01*
G37*
X131096954Y-84725258D02*
X131217003Y-84963000D01*
X132461000Y-84963000D01*
X132461000Y-84943000D01*
X132715000Y-84943000D01*
X132715000Y-84963000D01*
X133958997Y-84963000D01*
X134079046Y-84725258D01*
X133891972Y-84324000D01*
X136390000Y-84324000D01*
X136390000Y-152570000D01*
X111144000Y-152570000D01*
X111144000Y-149233254D01*
X119625351Y-149233254D01*
X120333086Y-150019674D01*
X122750514Y-151079558D01*
X125389526Y-151133654D01*
X127848358Y-150173726D01*
X128078914Y-150019674D01*
X128786649Y-149233254D01*
X124206000Y-144652605D01*
X119625351Y-149233254D01*
X111144000Y-149233254D01*
X111144000Y-145656526D01*
X117545346Y-145656526D01*
X118505274Y-148115358D01*
X118659326Y-148345914D01*
X119445746Y-149053649D01*
X124026395Y-144473000D01*
X124385605Y-144473000D01*
X128966254Y-149053649D01*
X129752674Y-148345914D01*
X130812558Y-145928486D01*
X130866654Y-143289474D01*
X129906726Y-140830642D01*
X129752674Y-140600086D01*
X128966254Y-139892351D01*
X124385605Y-144473000D01*
X124026395Y-144473000D01*
X119445746Y-139892351D01*
X118659326Y-140600086D01*
X117599442Y-143017514D01*
X117545346Y-145656526D01*
X111144000Y-145656526D01*
X111144000Y-139712746D01*
X119625351Y-139712746D01*
X124206000Y-144293395D01*
X128786649Y-139712746D01*
X128078914Y-138926326D01*
X125661486Y-137866442D01*
X123022474Y-137812346D01*
X120563642Y-138772274D01*
X120333086Y-138926326D01*
X119625351Y-139712746D01*
X111144000Y-139712746D01*
X111144000Y-137197000D01*
X111133994Y-137147590D01*
X111105553Y-137105965D01*
X111063159Y-137078685D01*
X111017000Y-137070000D01*
X97144000Y-137070000D01*
X97144000Y-133406545D01*
X102205685Y-133406545D01*
X102438238Y-133967998D01*
X102929104Y-134489232D01*
X103582073Y-134782943D01*
X103866880Y-134666598D01*
X103866880Y-133121740D01*
X104120880Y-133121740D01*
X104120880Y-134666598D01*
X104405687Y-134782943D01*
X105058656Y-134489232D01*
X105549522Y-133967998D01*
X105686302Y-133637768D01*
X131701900Y-133637768D01*
X131701900Y-133697912D01*
X131818745Y-134285331D01*
X132151491Y-134783321D01*
X132649481Y-135116067D01*
X133236900Y-135232912D01*
X133824319Y-135116067D01*
X134322309Y-134783321D01*
X134655055Y-134285331D01*
X134771900Y-133697912D01*
X134771900Y-133637768D01*
X134655055Y-133050349D01*
X134322309Y-132552359D01*
X134084318Y-132393339D01*
X134474866Y-132035416D01*
X134727946Y-131492582D01*
X134607897Y-131254840D01*
X133363900Y-131254840D01*
X133363900Y-131274840D01*
X133109900Y-131274840D01*
X133109900Y-131254840D01*
X131865903Y-131254840D01*
X131745854Y-131492582D01*
X131998934Y-132035416D01*
X132389482Y-132393339D01*
X132151491Y-132552359D01*
X131818745Y-133050349D01*
X131701900Y-133637768D01*
X105686302Y-133637768D01*
X105782075Y-133406545D01*
X105665312Y-133121740D01*
X104120880Y-133121740D01*
X103866880Y-133121740D01*
X102322448Y-133121740D01*
X102205685Y-133406545D01*
X97144000Y-133406545D01*
X97144000Y-132582935D01*
X102205685Y-132582935D01*
X102322448Y-132867740D01*
X103866880Y-132867740D01*
X103866880Y-131322882D01*
X104120880Y-131322882D01*
X104120880Y-132867740D01*
X105665312Y-132867740D01*
X105782075Y-132582935D01*
X105549522Y-132021482D01*
X105058656Y-131500248D01*
X104405687Y-131206537D01*
X104120880Y-131322882D01*
X103866880Y-131322882D01*
X103582073Y-131206537D01*
X102929104Y-131500248D01*
X102438238Y-132021482D01*
X102205685Y-132582935D01*
X97144000Y-132582935D01*
X97144000Y-126357255D01*
X99137728Y-124363527D01*
X131153952Y-124363527D01*
X131371957Y-124891140D01*
X131454200Y-124973527D01*
X131454200Y-127940140D01*
X131540597Y-128374486D01*
X131577931Y-128430360D01*
X131689460Y-128597275D01*
X131689460Y-129487840D01*
X131733738Y-129723157D01*
X131872810Y-129939281D01*
X132085010Y-130084271D01*
X132136046Y-130094606D01*
X131998934Y-130220264D01*
X131745854Y-130763098D01*
X131865903Y-131000840D01*
X133109900Y-131000840D01*
X133109900Y-130980840D01*
X133363900Y-130980840D01*
X133363900Y-131000840D01*
X134607897Y-131000840D01*
X134727946Y-130763098D01*
X134474866Y-130220264D01*
X134340362Y-130096996D01*
X134372217Y-130091002D01*
X134588341Y-129951930D01*
X134733331Y-129739730D01*
X134784340Y-129487840D01*
X134784340Y-127687840D01*
X134740062Y-127452523D01*
X134600990Y-127236399D01*
X134388790Y-127091409D01*
X134136900Y-127040400D01*
X133724200Y-127040400D01*
X133724200Y-124973946D01*
X133805024Y-124893263D01*
X134023950Y-124366031D01*
X134024448Y-123795153D01*
X133806443Y-123267540D01*
X133403123Y-122863516D01*
X132875891Y-122644590D01*
X132305013Y-122644092D01*
X131777400Y-122862097D01*
X131373376Y-123265417D01*
X131154450Y-123792649D01*
X131153952Y-124363527D01*
X99137728Y-124363527D01*
X99632096Y-123869159D01*
X100040713Y-123257621D01*
X100119387Y-122862097D01*
X100184200Y-122536262D01*
X100184200Y-117775468D01*
X131371700Y-117775468D01*
X131371700Y-117835612D01*
X131488545Y-118423031D01*
X131821291Y-118921021D01*
X132319281Y-119253767D01*
X132906700Y-119370612D01*
X133494119Y-119253767D01*
X133992109Y-118921021D01*
X134324855Y-118423031D01*
X134441700Y-117835612D01*
X134441700Y-117775468D01*
X134324855Y-117188049D01*
X133992109Y-116690059D01*
X133754118Y-116531039D01*
X134144666Y-116173116D01*
X134397746Y-115630282D01*
X134277697Y-115392540D01*
X133033700Y-115392540D01*
X133033700Y-115412540D01*
X132779700Y-115412540D01*
X132779700Y-115392540D01*
X131535703Y-115392540D01*
X131415654Y-115630282D01*
X131668734Y-116173116D01*
X132059282Y-116531039D01*
X131821291Y-116690059D01*
X131488545Y-117188049D01*
X131371700Y-117775468D01*
X100184200Y-117775468D01*
X100184200Y-110953640D01*
X100134419Y-110703375D01*
X100134518Y-110590237D01*
X100090932Y-110484751D01*
X100040713Y-110232282D01*
X99898951Y-110020120D01*
X99855745Y-109915554D01*
X99775108Y-109834776D01*
X99632096Y-109620744D01*
X99419932Y-109478980D01*
X99340001Y-109398910D01*
X99234593Y-109355141D01*
X99020558Y-109212127D01*
X98770293Y-109162346D01*
X98665805Y-109118959D01*
X98551670Y-109118859D01*
X98299200Y-109068640D01*
X98048935Y-109118421D01*
X97935797Y-109118322D01*
X97830311Y-109161908D01*
X97577842Y-109212127D01*
X97365680Y-109353889D01*
X97261114Y-109397095D01*
X97180336Y-109477732D01*
X97144000Y-109502011D01*
X97144000Y-106735927D01*
X129523272Y-106735927D01*
X129741277Y-107263540D01*
X129823520Y-107345927D01*
X129823520Y-110777360D01*
X129909917Y-111211706D01*
X129980301Y-111317043D01*
X130155954Y-111579926D01*
X131359260Y-112783232D01*
X131359260Y-113625540D01*
X131403538Y-113860857D01*
X131542610Y-114076981D01*
X131754810Y-114221971D01*
X131805846Y-114232306D01*
X131668734Y-114357964D01*
X131415654Y-114900798D01*
X131535703Y-115138540D01*
X132779700Y-115138540D01*
X132779700Y-115118540D01*
X133033700Y-115118540D01*
X133033700Y-115138540D01*
X134277697Y-115138540D01*
X134397746Y-114900798D01*
X134144666Y-114357964D01*
X134010162Y-114234696D01*
X134042017Y-114228702D01*
X134258141Y-114089630D01*
X134403131Y-113877430D01*
X134454140Y-113625540D01*
X134454140Y-111825540D01*
X134409862Y-111590223D01*
X134270790Y-111374099D01*
X134058590Y-111229109D01*
X133806700Y-111178100D01*
X132964392Y-111178100D01*
X132093520Y-110307228D01*
X132093520Y-107346346D01*
X132174344Y-107265663D01*
X132393270Y-106738431D01*
X132393768Y-106167553D01*
X132175763Y-105639940D01*
X131772443Y-105235916D01*
X131245211Y-105016990D01*
X130674333Y-105016492D01*
X130146720Y-105234497D01*
X129742696Y-105637817D01*
X129523770Y-106165049D01*
X129523272Y-106735927D01*
X97144000Y-106735927D01*
X97144000Y-102306868D01*
X131282800Y-102306868D01*
X131282800Y-102367012D01*
X131399645Y-102954431D01*
X131732391Y-103452421D01*
X132230381Y-103785167D01*
X132817800Y-103902012D01*
X133405219Y-103785167D01*
X133903209Y-103452421D01*
X134235955Y-102954431D01*
X134352800Y-102367012D01*
X134352800Y-102306868D01*
X134235955Y-101719449D01*
X133903209Y-101221459D01*
X133665218Y-101062439D01*
X134055766Y-100704516D01*
X134308846Y-100161682D01*
X134188797Y-99923940D01*
X132944800Y-99923940D01*
X132944800Y-99943940D01*
X132690800Y-99943940D01*
X132690800Y-99923940D01*
X131446803Y-99923940D01*
X131326754Y-100161682D01*
X131579834Y-100704516D01*
X131970382Y-101062439D01*
X131732391Y-101221459D01*
X131399645Y-101719449D01*
X131282800Y-102306868D01*
X97144000Y-102306868D01*
X97144000Y-93451727D01*
X130310672Y-93451727D01*
X130528677Y-93979340D01*
X130610920Y-94061727D01*
X130610920Y-96185060D01*
X130697317Y-96619406D01*
X130833084Y-96822595D01*
X130943354Y-96987626D01*
X131270360Y-97314632D01*
X131270360Y-98156940D01*
X131314638Y-98392257D01*
X131453710Y-98608381D01*
X131665910Y-98753371D01*
X131716946Y-98763706D01*
X131579834Y-98889364D01*
X131326754Y-99432198D01*
X131446803Y-99669940D01*
X132690800Y-99669940D01*
X132690800Y-99649940D01*
X132944800Y-99649940D01*
X132944800Y-99669940D01*
X134188797Y-99669940D01*
X134308846Y-99432198D01*
X134055766Y-98889364D01*
X133921262Y-98766096D01*
X133953117Y-98760102D01*
X134169241Y-98621030D01*
X134314231Y-98408830D01*
X134365240Y-98156940D01*
X134365240Y-96356940D01*
X134320962Y-96121623D01*
X134181890Y-95905499D01*
X133969690Y-95760509D01*
X133717800Y-95709500D01*
X132880920Y-95709500D01*
X132880920Y-94062146D01*
X132961744Y-93981463D01*
X133180670Y-93454231D01*
X133181168Y-92883353D01*
X132963163Y-92355740D01*
X132559843Y-91951716D01*
X132032611Y-91732790D01*
X131461733Y-91732292D01*
X130934120Y-91950297D01*
X130530096Y-92353617D01*
X130311170Y-92880849D01*
X130310672Y-93451727D01*
X97144000Y-93451727D01*
X97144000Y-87599928D01*
X131053000Y-87599928D01*
X131053000Y-87660072D01*
X131169845Y-88247491D01*
X131502591Y-88745481D01*
X132000581Y-89078227D01*
X132588000Y-89195072D01*
X133175419Y-89078227D01*
X133673409Y-88745481D01*
X134006155Y-88247491D01*
X134123000Y-87660072D01*
X134123000Y-87599928D01*
X134006155Y-87012509D01*
X133673409Y-86514519D01*
X133435418Y-86355499D01*
X133825966Y-85997576D01*
X134079046Y-85454742D01*
X133958997Y-85217000D01*
X132715000Y-85217000D01*
X132715000Y-85237000D01*
X132461000Y-85237000D01*
X132461000Y-85217000D01*
X131217003Y-85217000D01*
X131096954Y-85454742D01*
X131350034Y-85997576D01*
X131740582Y-86355499D01*
X131502591Y-86514519D01*
X131169845Y-87012509D01*
X131053000Y-87599928D01*
X97144000Y-87599928D01*
X97144000Y-84324000D01*
X131284028Y-84324000D01*
X131096954Y-84725258D01*
M02*
