(module Terminal_blocks_perso:3p_p3,5_W7_L11 (layer F.Cu) (tedit 5B368D65)
  (fp_text reference J3 (at -0.056 -2.032) (layer F.SilkS)
    (effects (font (size 1.2 1.2) (thickness 0.15)))
  )
  (fp_text value Conn_01x03 (at 0 -4.95) (layer F.Fab) hide
    (effects (font (size 1.2 1.2) (thickness 0.15)))
  )
  (fp_line (start -1.75 -3.75) (end -1.75 3.75) (layer F.SilkS) (width 0.15))
  (fp_line (start -5.25 3.75) (end -5.25 -3.75) (layer F.SilkS) (width 0.15))
  (fp_line (start 5.25 3.75) (end -5.25 3.75) (layer F.SilkS) (width 0.15))
  (fp_line (start 5.25 -3.75) (end 5.25 3.75) (layer F.SilkS) (width 0.15))
  (fp_line (start -5.25 -3.75) (end 5.25 -3.75) (layer F.SilkS) (width 0.15))
  (pad 3 thru_hole circle (at 3.5 0) (size 1.8 1.8) (drill 1) (layers *.Cu *.Mask))
  (pad 2 thru_hole circle (at 0 0) (size 1.8 1.8) (drill 1) (layers *.Cu *.Mask))
  (pad 1 thru_hole circle (at -3.5 0) (size 1.8 1.8) (drill 1) (layers *.Cu *.Mask))
)
