(module Capacitors_perso:L6mm,W3mm (layer F.Cu) (tedit 5C0DE016)
  (fp_text reference C8 (at 0.0889 0.6223) (layer F.SilkS)
    (effects (font (size 1.2 1.2) (thickness 0.15)))
  )
  (fp_text value 2.2u (at 0 -2.7) (layer F.SilkS)
    (effects (font (size 1.2 1.2) (thickness 0.15)))
  )
  (fp_line (start 0 -1.5) (end 0 1.5) (layer F.SilkS) (width 0.15))
  (fp_line (start -4.5 1.5) (end -4.5 -1.5) (layer F.SilkS) (width 0.15))
  (fp_line (start 4.5 1.5) (end -4.5 1.5) (layer F.SilkS) (width 0.15))
  (fp_line (start 4.5 -1.5) (end 4.5 1.5) (layer F.SilkS) (width 0.15))
  (fp_line (start -4.5 -1.5) (end 4.5 -1.5) (layer F.SilkS) (width 0.15))
  (pad 2 thru_hole circle (at 3 0) (size 2 2) (drill 0.8) (layers *.Cu *.Mask))
  (pad 1 thru_hole circle (at -3 0) (size 2 2) (drill 0.8) (layers *.Cu *.Mask))
)
