(module Resistors_perso:R_Axial_DIN0207_L40mm_D2.5mm_P15.24mm_Horizontal (layer F.Cu) (tedit 5C0DE001)
  (descr "Resistor, Axial_DIN0207 series, Axial, Horizontal, pin pitch=15.24mm, 0.25W = 1/4W, length*diameter=6.3*2.5mm^2, http://cdn-reichelt.de/documents/datenblatt/B400/1_4W%23YAG.pdf")
  (tags "Resistor Axial_DIN0207 series Axial Horizontal pin pitch 15.24mm 0.25W = 1/4W length 6.3mm diameter 2.5mm")
  (fp_text reference R29 (at 7.62 -2.31) (layer F.SilkS)
    (effects (font (size 1 1) (thickness 0.15)))
  )
  (fp_text value 22 (at 7.62 2.31) (layer F.SilkS)
    (effects (font (size 1 1) (thickness 0.15)))
  )
  (fp_line (start 28.19 -1.6) (end -13.2 -1.6) (layer F.CrtYd) (width 0.05))
  (fp_line (start 28.238 1.727) (end 28.238 -1.473) (layer F.CrtYd) (width 0.05))
  (fp_line (start -1.05 1.6) (end 16.3 1.6) (layer F.CrtYd) (width 0.05))
  (fp_line (start -13.115 -1.6) (end -13.115 1.6) (layer F.CrtYd) (width 0.05))
  (fp_line (start 26 0) (end 10.83 0) (layer F.SilkS) (width 0.12))
  (fp_line (start -11 0) (end 4.41 0) (layer F.SilkS) (width 0.12))
  (fp_line (start 10.83 -1.31) (end 4.41 -1.31) (layer F.SilkS) (width 0.12))
  (fp_line (start 10.83 1.31) (end 10.83 -1.31) (layer F.SilkS) (width 0.12))
  (fp_line (start 4.41 1.31) (end 10.83 1.31) (layer F.SilkS) (width 0.12))
  (fp_line (start 4.41 -1.31) (end 4.41 1.31) (layer F.SilkS) (width 0.12))
  (fp_line (start 26 0) (end 10.77 0) (layer F.Fab) (width 0.1))
  (fp_line (start 0 0) (end 4.47 0) (layer F.Fab) (width 0.1))
  (fp_line (start 10.77 -1.25) (end 4.47 -1.25) (layer F.Fab) (width 0.1))
  (fp_line (start 10.77 1.25) (end 10.77 -1.25) (layer F.Fab) (width 0.1))
  (fp_line (start 4.47 1.25) (end 10.77 1.25) (layer F.Fab) (width 0.1))
  (fp_line (start 4.47 -1.25) (end 4.47 1.25) (layer F.Fab) (width 0.1))
  (pad 2 thru_hole oval (at 27.178 0) (size 1.6 1.6) (drill 0.8) (layers *.Cu *.Mask))
  (pad 1 thru_hole circle (at -11.938 -0.127) (size 1.6 1.6) (drill 0.8) (layers *.Cu *.Mask))
  (model ${KISYS3DMOD}/Resistors_THT.3dshapes/R_Axial_DIN0207_L6.3mm_D2.5mm_P15.24mm_Horizontal.wrl
    (at (xyz 0 0 0))
    (scale (xyz 0.393701 0.393701 0.393701))
    (rotate (xyz 0 0 0))
  )
)
